image,ALB,BET,DOL,LAG,NoF,OTHER,SHARK,YFT
img_00053.jpg,0.975691,0.016037,0.001662,0.000686,0.001383,0.000649,0.000824,0.003067
img_01116.jpg,0.846301,0.010428,0.009031,0.012047,0.004101,0.059697,0.002584,0.055811
img_02216.jpg,0.186380,0.010509,0.000177,0.000322,0.565480,0.002493,0.000119,0.234519
img_03941.jpg,0.923100,0.005444,0.012005,0.007689,0.017615,0.027960,0.001502,0.004686
img_03923.jpg,0.485422,0.005262,0.009169,0.008541,0.370971,0.066326,0.001167,0.053141
img_03628.jpg,0.845980,0.001631,0.005605,0.000331,0.000570,0.000809,0.000383,0.144691
img_00642.jpg,0.354530,0.072603,0.032218,0.318073,0.032391,0.028749,0.016061,0.145375
img_04341.jpg,0.583678,0.000912,0.001397,0.000932,0.215913,0.002191,0.125403,0.069576
img_05268.jpg,0.682007,0.002026,0.001516,0.000489,0.029432,0.232892,0.002998,0.048640
img_00667.jpg,0.009276,0.000115,0.000017,0.000750,0.930180,0.000118,0.000354,0.059191
img_06681.jpg,0.643830,0.001344,0.027349,0.220670,0.041254,0.037949,0.004458,0.023147
img_04675.jpg,0.010915,0.003070,0.450287,0.001321,0.001166,0.000225,0.062196,0.470821
img_07659.jpg,0.484497,0.110196,0.004719,0.001090,0.000970,0.017592,0.159494,0.221443
img_02842.jpg,0.612258,0.015381,0.003096,0.000699,0.000946,0.317424,0.001376,0.048821
img_06936.jpg,0.948361,0.003963,0.000865,0.000389,0.027344,0.001556,0.012793,0.004729
img_01399.jpg,0.000759,0.428859,0.001936,0.000354,0.013877,0.020830,0.001308,0.532075
img_06663.jpg,0.145239,0.003615,0.045848,0.750095,0.021155,0.004029,0.004138,0.025880
img_01431.jpg,0.527692,0.053763,0.027014,0.316046,0.015315,0.009620,0.007121,0.043429
img_01657.jpg,0.000374,0.002181,0.616808,0.000405,0.000156,0.000123,0.000047,0.379906
img_01237.jpg,0.335234,0.017074,0.000603,0.000314,0.629602,0.001636,0.008838,0.006698
img_05864.jpg,0.606837,0.057465,0.016122,0.001005,0.206971,0.010062,0.006227,0.095311
img_00730.jpg,0.305869,0.034772,0.000765,0.001262,0.001831,0.026024,0.059953,0.569524
img_02146.jpg,0.533623,0.000408,0.001101,0.000361,0.429828,0.001412,0.001001,0.032266
img_06734.jpg,0.762522,0.084923,0.024744,0.045805,0.003812,0.004882,0.002461,0.070853
img_00927.jpg,0.580317,0.044219,0.001995,0.001574,0.046000,0.054589,0.051469,0.219835
img_03996.jpg,0.769611,0.200840,0.001164,0.001212,0.004770,0.003564,0.002619,0.016219
img_06845.jpg,0.508256,0.006537,0.011582,0.037712,0.153303,0.232921,0.007321,0.042368
img_01537.jpg,0.578368,0.005650,0.126707,0.000917,0.019742,0.189651,0.005465,0.073501
img_07419.jpg,0.003235,0.000038,0.006669,0.000122,0.000219,0.009896,0.000539,0.979281
img_07143.jpg,0.082618,0.000968,0.000795,0.001093,0.885330,0.000036,0.001279,0.027881
img_07183.jpg,0.081942,0.191182,0.000702,0.318483,0.004932,0.197507,0.000707,0.204546
img_06165.jpg,0.186003,0.003055,0.066823,0.001275,0.008586,0.010549,0.001511,0.722197
img_06272.jpg,0.011746,0.000179,0.000014,0.000071,0.986126,0.000282,0.000084,0.001498
img_00724.jpg,0.361178,0.005726,0.001533,0.002472,0.095673,0.000812,0.224850,0.307755
img_06646.jpg,0.434836,0.043436,0.001630,0.006960,0.503811,0.001962,0.001171,0.006194
img_06892.jpg,0.629381,0.009551,0.054977,0.000598,0.121397,0.013817,0.003841,0.166437
img_07553.jpg,0.238503,0.001444,0.000374,0.000051,0.753402,0.002564,0.000401,0.003261
img_06144.jpg,0.014452,0.000729,0.004834,0.001648,0.012827,0.030448,0.003408,0.931654
img_07122.jpg,0.904500,0.003597,0.001365,0.007803,0.003442,0.001223,0.000897,0.077173
img_05241.jpg,0.432562,0.003667,0.001909,0.031029,0.056568,0.453332,0.003393,0.017542
img_00974.jpg,0.954436,0.004430,0.001503,0.003106,0.001053,0.002900,0.004548,0.028024
img_05672.jpg,0.045276,0.021391,0.002251,0.020214,0.001221,0.678215,0.018482,0.212950
img_07574.jpg,0.819969,0.003789,0.000426,0.001007,0.155501,0.003651,0.002371,0.013285
img_00071.jpg,0.308432,0.013878,0.003927,0.630476,0.017908,0.012483,0.008710,0.004185
img_05336.jpg,0.892061,0.009298,0.005566,0.002127,0.001009,0.075792,0.001643,0.012504
img_05835.jpg,0.753580,0.080176,0.013238,0.000419,0.132358,0.000779,0.000899,0.018551
img_06237.jpg,0.605786,0.197174,0.023656,0.001231,0.003953,0.000946,0.003778,0.163476
img_00664.jpg,0.992936,0.000114,0.000898,0.000090,0.001672,0.000785,0.000377,0.003127
img_06099.jpg,0.396341,0.083323,0.000440,0.000708,0.513965,0.000358,0.003678,0.001188
img_02006.jpg,0.758450,0.005326,0.117384,0.013566,0.038112,0.014794,0.021215,0.031153
img_04959.jpg,0.635476,0.205500,0.051697,0.003310,0.003209,0.007255,0.004022,0.089531
img_05046.jpg,0.249268,0.001351,0.003733,0.001639,0.001629,0.002395,0.141403,0.598582
img_05459.jpg,0.855580,0.002045,0.002338,0.008514,0.003802,0.000763,0.001937,0.125022
img_01444.jpg,0.305286,0.093251,0.001628,0.001433,0.004557,0.208283,0.025124,0.360438
img_07628.jpg,0.000048,0.000269,0.000062,0.001166,0.998209,0.000061,0.000022,0.000164
img_05341.jpg,0.770413,0.026577,0.006421,0.000932,0.090342,0.003784,0.004466,0.097065
img_06748.jpg,0.000008,0.001625,0.000646,0.000027,0.000003,0.000012,0.000010,0.997670
img_03871.jpg,0.281586,0.001369,0.000149,0.003995,0.073442,0.266766,0.001220,0.371474
img_04962.jpg,0.007709,0.002522,0.009531,0.000166,0.000313,0.000846,0.000080,0.978833
img_02379.jpg,0.886715,0.001207,0.002362,0.000520,0.013296,0.000495,0.000136,0.095269
img_02412.jpg,0.523583,0.004159,0.000578,0.000974,0.025120,0.001629,0.002017,0.441939
img_02180.jpg,0.928211,0.001771,0.000282,0.000253,0.001032,0.064661,0.000353,0.003438
img_00763.jpg,0.035536,0.000110,0.000151,0.000702,0.946680,0.000732,0.001978,0.014113
img_05976.jpg,0.183112,0.224357,0.002315,0.026636,0.046810,0.079042,0.032374,0.405353
img_03869.jpg,0.987521,0.006810,0.001438,0.000171,0.001156,0.002090,0.000587,0.000227
img_04586.jpg,0.653296,0.077328,0.019774,0.196630,0.008911,0.009896,0.001383,0.032783
img_07621.jpg,0.367345,0.072133,0.001076,0.001268,0.008422,0.216210,0.008907,0.324638
img_01426.jpg,0.270890,0.637732,0.003943,0.000621,0.000049,0.009654,0.001528,0.075583
img_06555.jpg,0.755183,0.016817,0.042115,0.000523,0.019247,0.006296,0.001709,0.158111
img_01930.jpg,0.960569,0.003665,0.001622,0.001349,0.007152,0.013521,0.000692,0.011431
img_05210.jpg,0.580109,0.001137,0.001182,0.001220,0.394083,0.002842,0.014013,0.005414
img_04271.jpg,0.011922,0.000064,0.000152,0.000112,0.986291,0.000311,0.000419,0.000730
img_02318.jpg,0.077676,0.000964,0.000148,0.008698,0.020441,0.000771,0.001976,0.889327
img_01168.jpg,0.022033,0.253533,0.002170,0.022011,0.000040,0.562466,0.026865,0.110882
img_04145.jpg,0.540660,0.012955,0.000644,0.000798,0.010083,0.274928,0.012025,0.147906
img_06909.jpg,0.747034,0.004709,0.064097,0.121919,0.000457,0.002191,0.002992,0.056601
img_03967.jpg,0.807969,0.023705,0.001672,0.004469,0.029749,0.072719,0.004049,0.055668
img_00889.jpg,0.011552,0.000029,0.002355,0.000026,0.000040,0.000192,0.000261,0.985545
img_01632.jpg,0.994207,0.000081,0.000095,0.000103,0.001927,0.001379,0.000067,0.002141
img_05016.jpg,0.764321,0.023809,0.001486,0.004368,0.001772,0.138939,0.009612,0.055692
img_01803.jpg,0.000058,0.052405,0.660621,0.000833,0.000702,0.000327,0.001128,0.283926
img_02949.jpg,0.808784,0.003673,0.152541,0.000648,0.022837,0.002937,0.001990,0.006590
img_07330.jpg,0.745192,0.010803,0.002734,0.000278,0.002662,0.034208,0.026038,0.178085
img_07689.jpg,0.267653,0.017413,0.026339,0.429060,0.008302,0.036967,0.008246,0.206019
img_06608.jpg,0.982314,0.000369,0.000545,0.000012,0.013930,0.001877,0.000429,0.000523
img_07050.jpg,0.368378,0.002157,0.014677,0.556418,0.032231,0.005793,0.007884,0.012462
img_02769.jpg,0.036111,0.001433,0.006818,0.000712,0.007583,0.066550,0.001851,0.878942
img_03087.jpg,0.192129,0.034824,0.000570,0.000262,0.759181,0.009568,0.001211,0.002255
img_01103.jpg,0.060757,0.601298,0.001980,0.008911,0.000547,0.007411,0.000694,0.318401
img_05276.jpg,0.000225,0.000099,0.000013,0.000113,0.997688,0.000768,0.000069,0.001025
img_07700.jpg,0.290969,0.000500,0.009105,0.001000,0.049646,0.608437,0.000225,0.040119
img_02702.jpg,0.998804,0.000012,0.000008,0.000173,0.000456,0.000083,0.000090,0.000373
img_04024.jpg,0.920554,0.014587,0.001526,0.000210,0.002025,0.010298,0.001116,0.049684
img_06808.jpg,0.917507,0.061585,0.001344,0.000540,0.000570,0.005496,0.002188,0.010770
img_03776.jpg,0.661230,0.004157,0.003817,0.000754,0.120277,0.002830,0.000289,0.206646
img_04921.jpg,0.981771,0.000295,0.000169,0.000132,0.002436,0.004922,0.000334,0.009941
img_02830.jpg,0.311896,0.035814,0.000565,0.010558,0.002888,0.476223,0.019046,0.143010
img_07149.jpg,0.984978,0.000643,0.002330,0.000102,0.001331,0.001385,0.000413,0.008818
img_05790.jpg,0.738514,0.003319,0.001218,0.001360,0.017858,0.014767,0.001320,0.221644
img_05719.jpg,0.000198,0.001671,0.001454,0.000138,0.000301,0.000416,0.000071,0.995753
img_00772.jpg,0.007138,0.031934,0.080849,0.000138,0.000204,0.000863,0.000316,0.878558
img_02172.jpg,0.825650,0.002608,0.058562,0.000918,0.016412,0.068975,0.003701,0.023174
img_06966.jpg,0.368874,0.030947,0.001079,0.001274,0.002665,0.030397,0.065896,0.498869
img_05393.jpg,0.205471,0.636997,0.000170,0.007083,0.002251,0.011841,0.006404,0.129782
img_03677.jpg,0.886706,0.010342,0.005771,0.009938,0.016155,0.046240,0.002221,0.022626
img_01379.jpg,0.841575,0.010838,0.012722,0.003627,0.031764,0.025093,0.001425,0.072957
img_06273.jpg,0.940602,0.029282,0.003400,0.001305,0.004225,0.014206,0.003944,0.003036
img_06859.jpg,0.344169,0.001161,0.000820,0.002224,0.358092,0.220495,0.000146,0.072893
img_07371.jpg,0.000687,0.000126,0.010225,0.000054,0.000540,0.013662,0.000093,0.974613
img_07746.jpg,0.791452,0.004267,0.001610,0.000442,0.000712,0.020003,0.126047,0.055467
img_07908.jpg,0.740645,0.006258,0.005668,0.004423,0.191152,0.036406,0.001386,0.014062
img_00646.jpg,0.006787,0.002435,0.005351,0.000726,0.000933,0.012027,0.001303,0.970438
img_01983.jpg,0.527898,0.007899,0.005505,0.004435,0.300347,0.048474,0.007182,0.098262
img_05359.jpg,0.868593,0.023528,0.000259,0.000336,0.012171,0.058965,0.004438,0.031711
img_04375.jpg,0.014344,0.000328,0.038588,0.004325,0.928648,0.005891,0.001230,0.006645
img_07580.jpg,0.010697,0.181266,0.000291,0.479358,0.001878,0.315908,0.000202,0.010399
img_01204.jpg,0.000013,0.000005,0.000002,0.000003,0.995293,0.000016,0.000005,0.004663
img_03220.jpg,0.767909,0.005496,0.003324,0.046682,0.140398,0.015530,0.006185,0.014476
img_06321.jpg,0.561831,0.024103,0.002010,0.000614,0.003570,0.026537,0.174967,0.206368
img_06732.jpg,0.997254,0.000068,0.000037,0.000018,0.000597,0.000092,0.000216,0.001719
img_03652.jpg,0.973749,0.000035,0.000073,0.000004,0.020386,0.000763,0.000206,0.004784
img_06571.jpg,0.609142,0.012175,0.030745,0.294625,0.005495,0.003785,0.001498,0.042534
img_03935.jpg,0.346233,0.001733,0.000364,0.003245,0.466946,0.005855,0.134253,0.041372
img_07251.jpg,0.423576,0.039651,0.001249,0.001803,0.003807,0.011266,0.196482,0.322166
img_02703.jpg,0.253696,0.000322,0.001113,0.000146,0.001138,0.000560,0.000545,0.742480
img_01595.jpg,0.011349,0.000101,0.000035,0.000183,0.961025,0.001056,0.003394,0.022856
img_07469.jpg,0.018428,0.000412,0.024325,0.000096,0.000924,0.000705,0.001360,0.953749
img_07278.jpg,0.993834,0.000469,0.000918,0.000090,0.002491,0.000474,0.001614,0.000110
img_04603.jpg,0.919037,0.001118,0.000389,0.000496,0.037478,0.005633,0.000404,0.035446
img_07045.jpg,0.952785,0.002940,0.001909,0.000075,0.002083,0.001764,0.000850,0.037593
img_07304.jpg,0.911950,0.004028,0.002171,0.001323,0.012797,0.022764,0.000570,0.044397
img_02560.jpg,0.030143,0.001184,0.000484,0.000483,0.963796,0.003249,0.000164,0.000498
img_01716.jpg,0.000012,0.000003,0.000006,0.000010,0.999800,0.000117,0.000004,0.000047
img_00902.jpg,0.070885,0.206811,0.001906,0.004973,0.019852,0.005463,0.648725,0.041384
img_00962.jpg,0.022459,0.023671,0.002892,0.000387,0.000849,0.000672,0.001362,0.947708
img_07084.jpg,0.013514,0.000497,0.012986,0.000316,0.068475,0.002470,0.000184,0.901558
img_03452.jpg,0.475609,0.258126,0.003618,0.000182,0.119947,0.018812,0.006602,0.117104
img_06616.jpg,0.643908,0.005059,0.002112,0.000456,0.003269,0.089825,0.028842,0.226530
img_04425.jpg,0.707031,0.012761,0.007889,0.006300,0.013191,0.019129,0.002280,0.231418
img_01633.jpg,0.662730,0.006727,0.000710,0.000508,0.000298,0.279981,0.021260,0.027786
img_02799.jpg,0.732102,0.006098,0.002725,0.001777,0.110962,0.003419,0.140986,0.001932
img_04390.jpg,0.019900,0.001759,0.117700,0.000251,0.000480,0.002985,0.001625,0.855301
img_05087.jpg,0.940028,0.000449,0.005802,0.001152,0.017002,0.001807,0.002070,0.031690
img_02656.jpg,0.885588,0.003191,0.003671,0.007482,0.001321,0.002790,0.001637,0.094320
img_07818.jpg,0.995219,0.000496,0.000167,0.000095,0.000532,0.000182,0.003184,0.000126
img_05828.jpg,0.941917,0.002267,0.000265,0.006207,0.009502,0.001345,0.033989,0.004508
img_03929.jpg,0.039322,0.254035,0.000912,0.355647,0.019259,0.198728,0.002549,0.129548
img_04002.jpg,0.087320,0.141860,0.004259,0.082507,0.000601,0.482378,0.006993,0.194082
img_07188.jpg,0.907052,0.005006,0.000285,0.000105,0.035632,0.000057,0.000282,0.051580
img_03254.jpg,0.312826,0.003943,0.001360,0.001090,0.002408,0.469968,0.002698,0.205705
img_06630.jpg,0.313512,0.049012,0.001655,0.002317,0.019975,0.060928,0.275705,0.276895
img_04126.jpg,0.263460,0.052523,0.000792,0.000604,0.595276,0.003081,0.000398,0.083868
img_03520.jpg,0.565634,0.010858,0.017478,0.003009,0.037099,0.011136,0.003943,0.350842
img_01441.jpg,0.011131,0.001767,0.000055,0.000310,0.010379,0.002832,0.002169,0.971358
img_05563.jpg,0.603696,0.141682,0.009497,0.017302,0.022007,0.133045,0.011952,0.060820
img_05030.jpg,0.183983,0.046272,0.000765,0.063671,0.000292,0.076585,0.192833,0.435599
img_01976.jpg,0.792249,0.041306,0.002974,0.000025,0.004489,0.000451,0.004937,0.153567
img_00865.jpg,0.856491,0.055695,0.005306,0.005452,0.002038,0.021212,0.005598,0.048207
img_03587.jpg,0.378575,0.058241,0.000823,0.003177,0.018954,0.030543,0.255592,0.254096
img_01058.jpg,0.956888,0.002380,0.000901,0.000202,0.000525,0.003512,0.000869,0.034722
img_04657.jpg,0.595438,0.011490,0.095882,0.000342,0.006453,0.004115,0.001293,0.284988
img_01571.jpg,0.826848,0.005056,0.000357,0.000259,0.012541,0.000056,0.015502,0.139382
img_01404.jpg,0.649655,0.005558,0.006430,0.013309,0.001132,0.024487,0.003153,0.296276
img_03238.jpg,0.468150,0.033191,0.004059,0.008300,0.012171,0.017173,0.020177,0.436777
img_03223.jpg,0.773089,0.078328,0.002486,0.009465,0.007392,0.005125,0.001173,0.122942
img_07757.jpg,0.515494,0.009350,0.003555,0.002956,0.442859,0.002598,0.002738,0.020450
img_04118.jpg,0.799949,0.056472,0.000936,0.000920,0.030298,0.094712,0.000241,0.016473
img_00358.jpg,0.472847,0.066401,0.000218,0.008465,0.018246,0.108043,0.002738,0.323042
img_02808.jpg,0.854790,0.011301,0.007103,0.004996,0.012011,0.101755,0.001519,0.006525
img_03080.jpg,0.994599,0.000599,0.000051,0.000489,0.000250,0.000736,0.000291,0.002985
img_01519.jpg,0.334766,0.194566,0.003164,0.002597,0.003970,0.256400,0.009523,0.195013
img_05410.jpg,0.004291,0.000181,0.001848,0.000268,0.004501,0.119071,0.000545,0.869296
img_04503.jpg,0.056956,0.000805,0.004428,0.000459,0.874619,0.005419,0.002844,0.054470
img_02486.jpg,0.650742,0.010787,0.062065,0.004554,0.070711,0.153428,0.005186,0.042526
img_05156.jpg,0.722057,0.000821,0.000324,0.002147,0.074210,0.174203,0.000244,0.025994
img_00729.jpg,0.821761,0.002048,0.000394,0.000706,0.136015,0.004522,0.002970,0.031584
img_04642.jpg,0.726274,0.002229,0.000014,0.000123,0.262510,0.000092,0.002097,0.006661
img_05147.jpg,0.409530,0.005563,0.018350,0.376963,0.021481,0.010642,0.004750,0.152721
img_07921.jpg,0.020725,0.033230,0.000259,0.020753,0.001186,0.821284,0.002296,0.100267
img_04766.jpg,0.791668,0.017476,0.000371,0.000227,0.093232,0.017571,0.009520,0.069935
img_00280.jpg,0.845057,0.002904,0.002380,0.000854,0.108000,0.005485,0.001205,0.034115
img_07505.jpg,0.771926,0.051444,0.000801,0.001969,0.132058,0.003202,0.002727,0.035875
img_01090.jpg,0.081370,0.019254,0.000163,0.000206,0.883177,0.011222,0.001158,0.003448
img_06798.jpg,0.825362,0.011893,0.001506,0.014478,0.008005,0.133887,0.000486,0.004384
img_03228.jpg,0.722256,0.010060,0.002009,0.063534,0.000717,0.000394,0.000244,0.200787
img_03290.jpg,0.318537,0.011765,0.001765,0.001058,0.001358,0.003465,0.015080,0.646972
img_00383.jpg,0.972554,0.008678,0.000767,0.000083,0.010316,0.000262,0.003380,0.003961
img_07460.jpg,0.818973,0.043597,0.009880,0.001164,0.003089,0.062717,0.002438,0.058142
img_04405.jpg,0.159950,0.001519,0.001785,0.000281,0.003594,0.005759,0.326978,0.500133
img_00331.jpg,0.372631,0.127483,0.002325,0.003971,0.019379,0.190355,0.004712,0.279145
img_03043.jpg,0.002377,0.000069,0.000544,0.000059,0.000167,0.004052,0.000136,0.992596
img_06489.jpg,0.307152,0.000465,0.000203,0.000246,0.687060,0.001862,0.000649,0.002363
img_02416.jpg,0.108916,0.740176,0.059478,0.011842,0.042750,0.001533,0.000076,0.035228
img_03943.jpg,0.972780,0.000445,0.000094,0.000571,0.001631,0.001297,0.000041,0.023141
img_05950.jpg,0.983093,0.000925,0.000416,0.000138,0.002442,0.000209,0.000121,0.012657
img_01490.jpg,0.040085,0.000343,0.750819,0.001663,0.010973,0.000595,0.000494,0.195028
img_04554.jpg,0.841232,0.046045,0.024681,0.015218,0.038396,0.007915,0.002637,0.023876
img_00125.jpg,0.756177,0.006649,0.004185,0.006098,0.023514,0.098572,0.003357,0.101449
img_01211.jpg,0.594952,0.024481,0.145773,0.000518,0.006362,0.002262,0.018931,0.206720
img_00320.jpg,0.964116,0.000848,0.006049,0.001090,0.018187,0.001339,0.003597,0.004774
img_02739.jpg,0.989748,0.000093,0.001236,0.000033,0.000456,0.003675,0.001223,0.003536
img_02733.jpg,0.882798,0.001640,0.021686,0.047644,0.027623,0.015311,0.000898,0.002399
img_06959.jpg,0.847290,0.017940,0.002883,0.001100,0.061250,0.010242,0.002054,0.057241
img_05963.jpg,0.613377,0.008458,0.000488,0.002123,0.001931,0.068371,0.005945,0.299306
img_03931.jpg,0.666469,0.005023,0.004566,0.008492,0.171166,0.008199,0.001392,0.134692
img_01618.jpg,0.864808,0.031425,0.000816,0.000886,0.069706,0.017020,0.000851,0.014488
img_02096.jpg,0.970953,0.001219,0.004497,0.000524,0.005628,0.001139,0.001013,0.015026
img_06955.jpg,0.633093,0.016626,0.072920,0.000574,0.007638,0.038183,0.009399,0.221567
img_01541.jpg,0.000131,0.000008,0.000004,0.000021,0.999594,0.000176,0.000002,0.000064
img_01689.jpg,0.003386,0.000030,0.000112,0.000146,0.000948,0.001553,0.000031,0.993794
img_04949.jpg,0.076749,0.919915,0.000065,0.000017,0.000035,0.001157,0.001027,0.001034
img_00407.jpg,0.892567,0.009164,0.002605,0.003820,0.019277,0.058961,0.001244,0.012363
img_06756.jpg,0.585496,0.001999,0.000173,0.003988,0.092682,0.022079,0.003662,0.289921
img_02954.jpg,0.100301,0.001059,0.000121,0.000190,0.434925,0.004138,0.000054,0.459211
img_04427.jpg,0.722994,0.032519,0.001015,0.000343,0.000623,0.025317,0.192355,0.024832
img_07448.jpg,0.613229,0.106951,0.073083,0.003491,0.033329,0.024131,0.007329,0.138459
img_03440.jpg,0.000093,0.000308,0.004057,0.000135,0.000250,0.000251,0.000090,0.994816
img_07375.jpg,0.682783,0.005713,0.002597,0.000446,0.011863,0.108589,0.012466,0.175543
img_07678.jpg,0.313152,0.009441,0.016631,0.089998,0.105782,0.443739,0.002362,0.018894
img_05612.jpg,0.890852,0.069617,0.003397,0.002288,0.002407,0.019341,0.000496,0.011602
img_06870.jpg,0.857396,0.067292,0.000098,0.001081,0.028147,0.003014,0.000173,0.042800
img_05724.jpg,0.722008,0.016433,0.015126,0.019898,0.004374,0.020170,0.011274,0.190717
img_04181.jpg,0.517194,0.018269,0.000071,0.000079,0.454593,0.002652,0.000030,0.007112
img_03995.jpg,0.042969,0.027406,0.073545,0.001928,0.008131,0.002773,0.001450,0.841798
img_04559.jpg,0.004402,0.002394,0.001603,0.000387,0.001601,0.925350,0.000880,0.063382
img_01179.jpg,0.928353,0.003326,0.000712,0.032135,0.029441,0.003928,0.000473,0.001631
img_05768.jpg,0.106421,0.002870,0.001787,0.000657,0.000942,0.012198,0.133126,0.741997
img_05979.jpg,0.774772,0.010535,0.002154,0.003220,0.201817,0.001881,0.000237,0.005384
img_03831.jpg,0.001359,0.006178,0.016636,0.001225,0.003272,0.004588,0.000222,0.966520
img_07895.jpg,0.988178,0.002968,0.000491,0.000027,0.003824,0.000920,0.000200,0.003393
img_05981.jpg,0.640319,0.007913,0.000908,0.000928,0.314336,0.005063,0.002402,0.028130
img_06947.jpg,0.011875,0.000075,0.000042,0.000022,0.984926,0.001060,0.000033,0.001967
img_01888.jpg,0.052384,0.034554,0.001290,0.115523,0.001693,0.665494,0.025174,0.103888
img_05260.jpg,0.768249,0.018992,0.091473,0.008777,0.026746,0.073149,0.004893,0.007719
img_00009.jpg,0.880136,0.031731,0.000934,0.000077,0.009059,0.032573,0.001911,0.043578
img_04872.jpg,0.763295,0.007246,0.000127,0.000448,0.222596,0.001178,0.000164,0.004948
img_02622.jpg,0.813472,0.014075,0.000678,0.000509,0.001030,0.006083,0.027840,0.136312
img_05653.jpg,0.201444,0.027249,0.006303,0.005063,0.016069,0.000906,0.705180,0.037787
img_01996.jpg,0.544236,0.029152,0.004812,0.002676,0.000345,0.101436,0.222265,0.095078
img_03181.jpg,0.574194,0.014507,0.003499,0.000253,0.126688,0.274154,0.000428,0.006277
img_05026.jpg,0.560378,0.020019,0.000368,0.001479,0.005330,0.027591,0.005917,0.378919
img_05960.jpg,0.292384,0.012730,0.002653,0.000197,0.000149,0.002720,0.432801,0.256366
img_05426.jpg,0.605209,0.007593,0.011839,0.266718,0.025202,0.008591,0.009340,0.065509
img_03488.jpg,0.890759,0.025221,0.001355,0.008312,0.024034,0.028672,0.001293,0.020354
img_02307.jpg,0.428202,0.008631,0.003513,0.003600,0.002593,0.007643,0.182777,0.363040
img_04221.jpg,0.903831,0.000599,0.007103,0.001452,0.010263,0.016235,0.002651,0.057866
img_01688.jpg,0.859487,0.002820,0.000052,0.000320,0.001595,0.014750,0.001555,0.119421
img_02974.jpg,0.716383,0.006302,0.001053,0.000299,0.020768,0.000768,0.021634,0.232792
img_06324.jpg,0.452948,0.015872,0.000518,0.002766,0.009061,0.073985,0.120552,0.324299
img_05236.jpg,0.522420,0.082946,0.001500,0.002264,0.026864,0.139369,0.036836,0.187800
img_03342.jpg,0.833711,0.019553,0.000257,0.000510,0.001028,0.046530,0.013701,0.084711
img_00718.jpg,0.936725,0.000731,0.025897,0.000679,0.004525,0.014719,0.000652,0.016072
img_02231.jpg,0.308415,0.005553,0.008683,0.043600,0.536143,0.085826,0.007412,0.004369
img_00027.jpg,0.853228,0.010405,0.000479,0.000303,0.004594,0.013636,0.003479,0.113876
img_01646.jpg,0.911010,0.006066,0.014660,0.000814,0.028928,0.000068,0.013334,0.025120
img_03504.jpg,0.738575,0.071597,0.000369,0.000131,0.015052,0.101856,0.000094,0.072326
img_05958.jpg,0.002882,0.000176,0.001583,0.000219,0.000703,0.004162,0.001645,0.988630
img_07068.jpg,0.207979,0.260897,0.000907,0.013597,0.003607,0.149679,0.086074,0.277260
img_07417.jpg,0.015484,0.001090,0.000281,0.000303,0.008930,0.040403,0.000322,0.933187
img_02834.jpg,0.505600,0.009284,0.004517,0.000682,0.010094,0.210750,0.113500,0.145574
img_05640.jpg,0.676397,0.017860,0.003139,0.004185,0.160658,0.014427,0.003156,0.120177
img_05603.jpg,0.635382,0.070431,0.063396,0.008179,0.008055,0.006513,0.004838,0.203205
img_00964.jpg,0.000334,0.012633,0.532005,0.000193,0.000111,0.000342,0.000774,0.453609
img_04323.jpg,0.225987,0.001720,0.000663,0.002535,0.519752,0.001453,0.209613,0.038278
img_00119.jpg,0.000235,0.000102,0.000002,0.000034,0.889328,0.000270,0.000019,0.110010
img_06541.jpg,0.891517,0.007028,0.000198,0.000143,0.081459,0.000311,0.001120,0.018225
img_05940.jpg,0.945426,0.001294,0.000179,0.000483,0.029456,0.001718,0.000401,0.021043
img_06962.jpg,0.249618,0.118793,0.004037,0.002997,0.001867,0.060593,0.221403,0.340692
img_06642.jpg,0.248209,0.131111,0.002935,0.002764,0.003208,0.078802,0.142929,0.390042
img_05139.jpg,0.085314,0.000186,0.038047,0.000180,0.000098,0.005668,0.000664,0.869843
img_07270.jpg,0.002076,0.000654,0.000376,0.010333,0.970895,0.000320,0.000479,0.014867
img_06371.jpg,0.135985,0.260951,0.029084,0.001578,0.001608,0.002189,0.561643,0.006961
img_05927.jpg,0.859864,0.002078,0.001829,0.000509,0.007208,0.005459,0.001259,0.121794
img_02811.jpg,0.905635,0.000186,0.006176,0.001708,0.035158,0.047190,0.001417,0.002528
img_05273.jpg,0.703936,0.002923,0.054884,0.000744,0.007542,0.174986,0.003769,0.051215
img_02890.jpg,0.436045,0.014242,0.002572,0.014900,0.020789,0.444191,0.004938,0.062324
img_04479.jpg,0.873414,0.002901,0.000450,0.000992,0.016797,0.027599,0.002433,0.075414
img_01031.jpg,0.889178,0.005538,0.009046,0.009621,0.026705,0.048137,0.000460,0.011315
img_03446.jpg,0.000919,0.021408,0.561656,0.001361,0.020829,0.004128,0.002154,0.387545
img_05580.jpg,0.136697,0.004929,0.003494,0.000542,0.004467,0.011885,0.171838,0.666148
img_01388.jpg,0.695242,0.055846,0.002050,0.001301,0.052872,0.123450,0.003868,0.065371
img_00575.jpg,0.588732,0.002303,0.001248,0.000783,0.002852,0.087687,0.022134,0.294261
img_05587.jpg,0.212096,0.001478,0.004702,0.243572,0.490936,0.007997,0.003035,0.036184
img_04640.jpg,0.749375,0.006587,0.000427,0.000532,0.006756,0.156123,0.002861,0.077339
img_04629.jpg,0.950143,0.000604,0.000025,0.000024,0.047048,0.000161,0.000046,0.001950
img_01669.jpg,0.619751,0.028405,0.004256,0.088680,0.002445,0.028453,0.005094,0.222915
img_00486.jpg,0.876444,0.017067,0.086765,0.006888,0.003651,0.002710,0.001686,0.004789
img_02194.jpg,0.990759,0.000090,0.000045,0.000006,0.007026,0.000268,0.000398,0.001407
img_01213.jpg,0.989542,0.000790,0.000770,0.002338,0.000549,0.000621,0.000817,0.004572
img_04001.jpg,0.895764,0.087340,0.000485,0.000430,0.000158,0.011145,0.004260,0.000418
img_07187.jpg,0.991679,0.001138,0.000243,0.000105,0.000254,0.000213,0.000309,0.006059
img_05074.jpg,0.617660,0.001584,0.003786,0.001168,0.368151,0.001197,0.001495,0.004959
img_02124.jpg,0.353281,0.001178,0.001237,0.000596,0.002632,0.536378,0.016091,0.088608
img_07157.jpg,0.515383,0.030760,0.153919,0.019580,0.032024,0.156860,0.004755,0.086719
img_00837.jpg,0.864537,0.031810,0.009033,0.026225,0.006561,0.000647,0.002955,0.058231
img_07426.jpg,0.765949,0.025855,0.162638,0.002188,0.016574,0.015771,0.004272,0.006752
img_04127.jpg,0.351336,0.106347,0.003216,0.003443,0.005432,0.043626,0.004613,0.481987
img_00030.jpg,0.457574,0.001737,0.004549,0.000345,0.320056,0.022287,0.101420,0.092031
img_03135.jpg,0.604615,0.051022,0.000825,0.007451,0.001857,0.043746,0.004180,0.286304
img_01649.jpg,0.575656,0.000928,0.002412,0.002636,0.169828,0.011523,0.003002,0.234016
img_06211.jpg,0.713067,0.050009,0.013683,0.044010,0.000551,0.022482,0.005400,0.150798
img_05244.jpg,0.840543,0.006524,0.002844,0.000540,0.013459,0.019335,0.001369,0.115386
img_07156.jpg,0.892166,0.003609,0.001562,0.000596,0.068652,0.009290,0.001756,0.022369
img_03457.jpg,0.487420,0.011018,0.126587,0.000611,0.003255,0.355014,0.005150,0.010944
img_00618.jpg,0.887962,0.000452,0.000048,0.000189,0.109148,0.001132,0.000283,0.000786
img_03399.jpg,0.898024,0.006889,0.002218,0.001798,0.060161,0.021583,0.002202,0.007124
img_01530.jpg,0.602396,0.000578,0.002811,0.000251,0.373964,0.001832,0.001273,0.016893
img_01853.jpg,0.718057,0.044919,0.000583,0.001484,0.024473,0.014821,0.035709,0.159953
img_00876.jpg,0.000273,0.000017,0.000003,0.000030,0.995496,0.000199,0.000034,0.003949
img_06585.jpg,0.167444,0.009211,0.002718,0.003912,0.763073,0.022835,0.003443,0.027362
img_00921.jpg,0.682420,0.024445,0.002209,0.001044,0.007180,0.168841,0.012103,0.101758
img_05264.jpg,0.003638,0.010193,0.559771,0.001336,0.000406,0.002546,0.001033,0.421077
img_07086.jpg,0.366485,0.024400,0.000123,0.000456,0.001037,0.002849,0.007475,0.597175
img_05721.jpg,0.003901,0.000234,0.009069,0.000056,0.000125,0.000816,0.000108,0.985691
img_01647.jpg,0.064672,0.000497,0.000141,0.000255,0.907039,0.000194,0.007575,0.019626
img_03078.jpg,0.895915,0.031456,0.002213,0.000600,0.000093,0.005983,0.044711,0.019029
img_02648.jpg,0.012013,0.000113,0.087799,0.000188,0.000287,0.000177,0.000537,0.898887
img_07060.jpg,0.380455,0.097266,0.005361,0.006876,0.004030,0.100817,0.135640,0.269556
img_07501.jpg,0.247978,0.002809,0.000885,0.000432,0.742193,0.000282,0.002106,0.003315
img_06345.jpg,0.301494,0.001238,0.000503,0.006201,0.008511,0.015021,0.008308,0.658725
img_00584.jpg,0.720247,0.000210,0.000003,0.000021,0.276034,0.002152,0.000491,0.000842
img_07103.jpg,0.787724,0.170281,0.001854,0.001308,0.020013,0.005108,0.012806,0.000905
img_03867.jpg,0.112847,0.043331,0.000237,0.000278,0.840295,0.000248,0.000366,0.002398
img_07583.jpg,0.445746,0.451686,0.016186,0.002685,0.002729,0.008141,0.042826,0.030000
img_01781.jpg,0.189727,0.005876,0.016977,0.286399,0.418021,0.045863,0.001813,0.035325
img_04266.jpg,0.272415,0.061187,0.003360,0.000741,0.000452,0.419000,0.002748,0.240097
img_00473.jpg,0.469364,0.002766,0.001075,0.000049,0.000610,0.006588,0.000089,0.519459
img_02367.jpg,0.631454,0.003406,0.001060,0.001492,0.179859,0.005438,0.000644,0.176647
img_02159.jpg,0.313499,0.004687,0.002475,0.001947,0.487739,0.124060,0.000792,0.064801
img_06832.jpg,0.760844,0.002880,0.017080,0.019937,0.086532,0.102399,0.000315,0.010012
img_01685.jpg,0.264715,0.000684,0.007149,0.006452,0.318990,0.307751,0.000268,0.093990
img_04076.jpg,0.658257,0.036707,0.011259,0.002005,0.062986,0.224623,0.001102,0.003062
img_04885.jpg,0.099216,0.151592,0.000141,0.368486,0.004649,0.266225,0.000527,0.109164
img_06559.jpg,0.778039,0.000198,0.000012,0.000107,0.209631,0.000254,0.000753,0.011006
img_05433.jpg,0.577873,0.016788,0.000533,0.000322,0.025788,0.302898,0.006544,0.069254
img_02066.jpg,0.704375,0.006448,0.017649,0.001100,0.044701,0.018046,0.002852,0.204830
img_07237.jpg,0.556208,0.106464,0.034557,0.035210,0.061470,0.133990,0.006177,0.065924
img_00152.jpg,0.028442,0.001409,0.001489,0.001968,0.009201,0.019429,0.000441,0.937622
img_01392.jpg,0.000985,0.013082,0.347071,0.003182,0.010983,0.014238,0.004148,0.606310
img_00894.jpg,0.706620,0.007428,0.003630,0.002234,0.254197,0.005810,0.000855,0.019225
img_07717.jpg,0.820252,0.003622,0.000370,0.000328,0.000560,0.171506,0.000584,0.002778
img_01673.jpg,0.970013,0.006693,0.001018,0.003888,0.004360,0.002798,0.001158,0.010072
img_04415.jpg,0.672105,0.002566,0.013102,0.000341,0.186633,0.015545,0.004988,0.104719
img_07137.jpg,0.939360,0.000379,0.000106,0.000010,0.055827,0.000095,0.000120,0.004103
img_02709.jpg,0.840687,0.017604,0.040033,0.001151,0.031863,0.014630,0.005375,0.048657
img_05915.jpg,0.003364,0.000122,0.005927,0.000364,0.003211,0.068943,0.000408,0.917661
img_04037.jpg,0.774410,0.010737,0.001869,0.000884,0.002555,0.038031,0.070784,0.100731
img_04272.jpg,0.923330,0.002028,0.012109,0.000148,0.000136,0.004523,0.000126,0.057600
img_04811.jpg,0.045398,0.000799,0.000047,0.001032,0.038158,0.050730,0.000397,0.863438
img_07436.jpg,0.446163,0.161935,0.007078,0.000967,0.004654,0.055180,0.126855,0.197169
img_01059.jpg,0.973533,0.004535,0.000426,0.000106,0.001873,0.007542,0.001733,0.010251
img_04136.jpg,0.733560,0.020456,0.086076,0.001075,0.020724,0.059327,0.010288,0.068495
img_05322.jpg,0.809137,0.006345,0.002504,0.000999,0.021167,0.004177,0.003187,0.152484
img_06902.jpg,0.764403,0.021065,0.007250,0.000506,0.185590,0.009209,0.001169,0.010806
img_00676.jpg,0.000048,0.000135,0.000002,0.000114,0.616469,0.000257,0.000011,0.382963
img_04870.jpg,0.787548,0.000986,0.000722,0.035124,0.032140,0.003626,0.000350,0.139505
img_05492.jpg,0.024643,0.000036,0.660416,0.000145,0.000196,0.000104,0.000164,0.314296
img_00223.jpg,0.517608,0.031163,0.390405,0.000632,0.009416,0.035069,0.011324,0.004383
img_05775.jpg,0.634871,0.018244,0.014788,0.007089,0.007580,0.059605,0.004442,0.253381
img_06510.jpg,0.921666,0.000052,0.000058,0.000497,0.004827,0.000389,0.000112,0.072399
img_07616.jpg,0.706288,0.017159,0.015305,0.004510,0.022069,0.137430,0.001826,0.095412
img_07538.jpg,0.441003,0.177691,0.005546,0.002036,0.030361,0.124461,0.021064,0.197839
img_02636.jpg,0.699457,0.203794,0.031579,0.000551,0.023009,0.001219,0.000520,0.039872
img_06174.jpg,0.921042,0.018638,0.001696,0.005944,0.020445,0.021699,0.004354,0.006181
img_06496.jpg,0.880630,0.002579,0.000430,0.004495,0.062712,0.012848,0.000887,0.035419
img_02687.jpg,0.202513,0.000247,0.000060,0.003715,0.002553,0.000638,0.004286,0.785987
img_01640.jpg,0.999082,0.000131,0.000053,0.000019,0.000129,0.000119,0.000057,0.000410
img_00171.jpg,0.297475,0.002105,0.003351,0.010608,0.116987,0.534183,0.003402,0.031889
img_03581.jpg,0.805464,0.006168,0.004285,0.033159,0.024417,0.052015,0.001718,0.072775
img_03310.jpg,0.816914,0.013918,0.000932,0.036483,0.000943,0.111468,0.000726,0.018616
img_00533.jpg,0.706167,0.078365,0.000718,0.000585,0.013298,0.004689,0.029085,0.167094
img_05068.jpg,0.316669,0.078568,0.002385,0.000052,0.103498,0.009693,0.002607,0.486528
img_06525.jpg,0.384271,0.003500,0.117571,0.000920,0.035543,0.033057,0.002562,0.422577
img_04990.jpg,0.169059,0.004556,0.002903,0.001487,0.004423,0.061678,0.179467,0.576426
img_02602.jpg,0.766405,0.053029,0.032227,0.011826,0.094904,0.005100,0.003134,0.033374
img_00773.jpg,0.631885,0.005587,0.274380,0.000486,0.063091,0.006696,0.002247,0.015626
img_00858.jpg,0.955158,0.001044,0.000338,0.000019,0.018415,0.003184,0.000100,0.021742
img_00943.jpg,0.972683,0.001125,0.000005,0.000066,0.022744,0.000151,0.000128,0.003100
img_04723.jpg,0.030022,0.004517,0.502423,0.006537,0.011034,0.019757,0.001166,0.424545
img_01834.jpg,0.322350,0.004320,0.031813,0.000644,0.011318,0.095948,0.002769,0.530838
img_05922.jpg,0.960268,0.015120,0.003653,0.002615,0.004106,0.000983,0.002747,0.010508
img_02734.jpg,0.742320,0.013494,0.001404,0.002073,0.075734,0.058191,0.003366,0.103419
img_06332.jpg,0.460843,0.014871,0.008298,0.006165,0.288762,0.012121,0.124232,0.084708
img_05615.jpg,0.967164,0.001604,0.000758,0.000071,0.022059,0.000133,0.000458,0.007754
img_02838.jpg,0.903546,0.023591,0.007983,0.000143,0.003168,0.000198,0.001884,0.059487
img_06521.jpg,0.217473,0.151067,0.001041,0.000999,0.016288,0.025212,0.081699,0.506221
img_01384.jpg,0.357492,0.005008,0.023561,0.001666,0.059741,0.487844,0.000739,0.063950
img_00285.jpg,0.518441,0.001197,0.000619,0.000451,0.004528,0.010533,0.160428,0.303803
img_00120.jpg,0.114122,0.003168,0.001722,0.000569,0.002390,0.030640,0.157187,0.690202
img_03896.jpg,0.984453,0.005587,0.000471,0.000314,0.005852,0.000171,0.001108,0.002044
img_03261.jpg,0.407187,0.042068,0.113129,0.000417,0.005424,0.005797,0.001701,0.424278
img_03231.jpg,0.706161,0.001168,0.228788,0.007411,0.015775,0.011512,0.002296,0.026890
img_02422.jpg,0.413904,0.285741,0.002034,0.001600,0.029629,0.004629,0.075172,0.187292
img_04757.jpg,0.583187,0.015178,0.003951,0.000682,0.009335,0.167313,0.017907,0.202447
img_03891.jpg,0.848776,0.112266,0.003213,0.003260,0.000306,0.006749,0.003701,0.021728
img_00046.jpg,0.969724,0.000689,0.000065,0.000122,0.027662,0.000303,0.000102,0.001333
img_05916.jpg,0.877208,0.025850,0.005903,0.000224,0.008343,0.001021,0.000412,0.081039
img_03764.jpg,0.939145,0.047179,0.001512,0.000245,0.000820,0.005998,0.001494,0.003607
img_05740.jpg,0.618504,0.051603,0.146154,0.008184,0.087774,0.044378,0.001396,0.042008
img_07354.jpg,0.761354,0.000669,0.000033,0.000051,0.159839,0.000071,0.000407,0.077577
img_01373.jpg,0.576358,0.027923,0.029450,0.002778,0.210338,0.013001,0.002200,0.137952
img_02078.jpg,0.701119,0.012560,0.057215,0.011875,0.199173,0.000045,0.000076,0.017936
img_00697.jpg,0.003692,0.005817,0.007820,0.000365,0.000579,0.000485,0.000342,0.980900
img_00289.jpg,0.911563,0.000401,0.000064,0.000055,0.082741,0.000782,0.000129,0.004265
img_05824.jpg,0.004996,0.000503,0.001658,0.000096,0.992187,0.000209,0.000050,0.000301
img_02766.jpg,0.997012,0.000139,0.000221,0.000189,0.001410,0.000271,0.000350,0.000407
img_05471.jpg,0.361897,0.042442,0.000247,0.007601,0.011807,0.018002,0.002560,0.555443
img_03825.jpg,0.906743,0.010206,0.003705,0.001647,0.003290,0.035103,0.003860,0.035447
img_02726.jpg,0.610061,0.015977,0.005589,0.007506,0.236802,0.009895,0.009068,0.105102
img_04830.jpg,0.929560,0.000305,0.000027,0.000356,0.068516,0.000062,0.000217,0.000957
img_01043.jpg,0.138583,0.007077,0.008132,0.005748,0.796000,0.018980,0.001350,0.024130
img_06189.jpg,0.505164,0.024277,0.003004,0.024005,0.058878,0.127368,0.004028,0.253274
img_05508.jpg,0.331495,0.019172,0.003326,0.000180,0.048133,0.001124,0.000990,0.595580
img_05755.jpg,0.668555,0.033321,0.005385,0.054183,0.019541,0.005328,0.056318,0.157369
img_07160.jpg,0.057667,0.007549,0.000387,0.000031,0.925893,0.000295,0.000026,0.008152
img_06614.jpg,0.349493,0.005892,0.015425,0.294289,0.147073,0.143209,0.008069,0.036550
img_05488.jpg,0.994481,0.000652,0.000658,0.000058,0.000895,0.000685,0.000198,0.002374
img_00757.jpg,0.602147,0.075879,0.136672,0.000538,0.002713,0.156892,0.007452,0.017708
img_05445.jpg,0.571492,0.001620,0.010161,0.012818,0.379830,0.015958,0.001517,0.006603
img_04879.jpg,0.075275,0.142775,0.000658,0.046304,0.000243,0.435867,0.007365,0.291512
img_05882.jpg,0.649221,0.093581,0.000574,0.001287,0.008582,0.013640,0.019539,0.213576
img_07590.jpg,0.622674,0.341720,0.000148,0.000331,0.000060,0.000138,0.000051,0.034877
img_07173.jpg,0.454555,0.000191,0.000116,0.001923,0.009526,0.006477,0.000733,0.526479
img_05378.jpg,0.885867,0.000067,0.000020,0.000065,0.113428,0.000035,0.000056,0.000462
img_01134.jpg,0.836266,0.013542,0.009649,0.022356,0.037470,0.042265,0.002808,0.035644
img_06690.jpg,0.013598,0.000034,0.095246,0.000346,0.000059,0.005222,0.000582,0.884914
img_04423.jpg,0.756724,0.010692,0.008536,0.001623,0.165762,0.002074,0.000437,0.054153
img_00232.jpg,0.064678,0.309082,0.001621,0.008705,0.020747,0.001495,0.554585,0.039087
img_04257.jpg,0.168135,0.013888,0.000348,0.000307,0.770118,0.000173,0.000988,0.046044
img_01984.jpg,0.478612,0.005872,0.019900,0.000501,0.000342,0.003057,0.003701,0.488014
img_00138.jpg,0.823228,0.021005,0.033636,0.000661,0.009369,0.009628,0.004997,0.097477
img_01955.jpg,0.047360,0.011140,0.000965,0.000468,0.000722,0.017126,0.004942,0.917277
img_03527.jpg,0.000005,0.000492,0.000787,0.000045,0.000070,0.000623,0.000061,0.997918
img_00550.jpg,0.137301,0.002161,0.021038,0.001589,0.015708,0.796006,0.002486,0.023712
img_05838.jpg,0.802739,0.000894,0.000980,0.000664,0.120654,0.002140,0.000863,0.071065
img_02252.jpg,0.982014,0.000272,0.000097,0.000083,0.003021,0.001580,0.000101,0.012831
img_02764.jpg,0.792186,0.000028,0.000108,0.000005,0.201475,0.000153,0.000098,0.005948
img_02406.jpg,0.547704,0.004395,0.008760,0.094092,0.024525,0.287331,0.009000,0.024192
img_02556.jpg,0.639106,0.020310,0.000161,0.000452,0.001507,0.009433,0.000186,0.328845
img_06302.jpg,0.850025,0.005043,0.004069,0.004909,0.042061,0.001700,0.001127,0.091066
img_01142.jpg,0.899121,0.002444,0.006288,0.000497,0.011677,0.017120,0.003481,0.059371
img_05076.jpg,0.772418,0.023016,0.000373,0.000437,0.010307,0.095069,0.002611,0.095769
img_02522.jpg,0.932136,0.005152,0.004466,0.001584,0.002114,0.016099,0.004059,0.034390
img_00982.jpg,0.341638,0.357023,0.002897,0.010054,0.085520,0.003105,0.000509,0.199253
img_05192.jpg,0.361097,0.045684,0.000708,0.000709,0.002504,0.004130,0.438625,0.146544
img_03355.jpg,0.187752,0.003052,0.004909,0.000709,0.003073,0.020284,0.028708,0.751513
img_05137.jpg,0.418046,0.206724,0.002435,0.010867,0.012340,0.003192,0.001303,0.345092
img_04422.jpg,0.233367,0.614521,0.011395,0.002358,0.002563,0.022350,0.003061,0.110385
img_07146.jpg,0.422087,0.017872,0.001692,0.000615,0.432708,0.047736,0.016893,0.060397
img_04795.jpg,0.380712,0.330061,0.004564,0.003919,0.000965,0.043464,0.184566,0.051749
img_05222.jpg,0.965422,0.000040,0.001787,0.000045,0.029010,0.000464,0.001556,0.001677
img_05021.jpg,0.029466,0.000195,0.000248,0.000058,0.964587,0.000153,0.000159,0.005133
img_05766.jpg,0.854575,0.010437,0.000498,0.000525,0.000059,0.000176,0.000120,0.133610
img_06673.jpg,0.999855,0.000012,0.000006,0.000011,0.000094,0.000012,0.000005,0.000006
img_04461.jpg,0.932063,0.004272,0.036927,0.002658,0.004971,0.001835,0.001929,0.015345
img_01745.jpg,0.547478,0.018477,0.159293,0.003182,0.006876,0.029574,0.008689,0.226432
img_03471.jpg,0.794183,0.015732,0.022816,0.044821,0.093320,0.000641,0.021175,0.007312
img_00484.jpg,0.426594,0.052288,0.026321,0.041420,0.103298,0.237095,0.014566,0.098418
img_06975.jpg,0.949230,0.000740,0.001098,0.000286,0.000774,0.008492,0.003627,0.035753
img_06259.jpg,0.000099,0.000002,0.002254,0.000041,0.000043,0.000153,0.000020,0.997389
img_05015.jpg,0.364197,0.025349,0.029349,0.489506,0.003503,0.020375,0.012105,0.055616
img_02574.jpg,0.468771,0.004032,0.009832,0.000113,0.132827,0.022777,0.002657,0.358992
img_05284.jpg,0.277119,0.593260,0.050157,0.008768,0.001685,0.009933,0.010075,0.049002
img_01371.jpg,0.785156,0.012596,0.002268,0.000683,0.183936,0.000343,0.000477,0.014540
img_00196.jpg,0.001222,0.000113,0.000024,0.000202,0.975315,0.000666,0.000016,0.022442
img_05692.jpg,0.008731,0.000043,0.015469,0.000063,0.000047,0.001807,0.000222,0.973620
img_03370.jpg,0.853082,0.013043,0.000787,0.002265,0.004316,0.032686,0.005216,0.088605
img_05568.jpg,0.829734,0.001560,0.000318,0.001198,0.001883,0.004724,0.002798,0.157785
img_02001.jpg,0.495168,0.027419,0.001771,0.000932,0.003380,0.341850,0.006701,0.122779
img_07079.jpg,0.004044,0.000011,0.000142,0.000023,0.995696,0.000070,0.000002,0.000011
img_04563.jpg,0.967702,0.000683,0.000115,0.000064,0.000208,0.019905,0.000714,0.010608
img_02281.jpg,0.453448,0.012134,0.010796,0.031180,0.459411,0.018101,0.002922,0.012009
img_01724.jpg,0.688601,0.004429,0.028818,0.000236,0.003734,0.225675,0.003364,0.045142
img_03445.jpg,0.384528,0.002290,0.000098,0.000184,0.519851,0.000435,0.001017,0.091598
img_03602.jpg,0.083963,0.004264,0.000273,0.002933,0.001606,0.851939,0.000572,0.054450
img_01562.jpg,0.080567,0.001294,0.002107,0.000543,0.002670,0.011976,0.089189,0.811654
img_03439.jpg,0.877615,0.005328,0.002995,0.021907,0.027804,0.043260,0.001500,0.019591
img_04453.jpg,0.027702,0.000062,0.000831,0.000533,0.966505,0.000065,0.000182,0.004119
img_02235.jpg,0.043822,0.429899,0.000265,0.190114,0.002140,0.261482,0.000393,0.071886
img_05059.jpg,0.001386,0.000530,0.000173,0.000565,0.906428,0.000768,0.000654,0.089497
img_00551.jpg,0.862354,0.001139,0.016331,0.018508,0.086614,0.006649,0.004514,0.003890
img_02920.jpg,0.915813,0.023484,0.002305,0.000732,0.001015,0.020124,0.001163,0.035363
img_05328.jpg,0.707581,0.001258,0.000551,0.001202,0.232500,0.001045,0.020781,0.035081
img_06564.jpg,0.799216,0.018335,0.026660,0.088544,0.016455,0.017835,0.006123,0.026832
img_00133.jpg,0.235069,0.001183,0.000214,0.000906,0.671905,0.001432,0.004360,0.084930
img_01505.jpg,0.001169,0.000031,0.000012,0.000422,0.988716,0.000727,0.000160,0.008762
img_07508.jpg,0.229020,0.021482,0.001552,0.004624,0.022845,0.006788,0.077662,0.636027
img_04585.jpg,0.000759,0.000002,0.000027,0.000003,0.999195,0.000004,0.000000,0.000009
img_04069.jpg,0.640568,0.018076,0.001587,0.007543,0.049025,0.135303,0.001932,0.145967
img_00446.jpg,0.872543,0.000956,0.001390,0.006469,0.105919,0.007380,0.000521,0.004822
img_05196.jpg,0.000786,0.000022,0.000024,0.000008,0.999012,0.000015,0.000007,0.000126
img_06238.jpg,0.291531,0.028771,0.001101,0.003994,0.437508,0.003068,0.005524,0.228502
img_05896.jpg,0.816111,0.011299,0.009478,0.084339,0.013418,0.024065,0.003971,0.037318
img_05673.jpg,0.851464,0.042352,0.003618,0.001734,0.017227,0.006438,0.000996,0.076169
img_00164.jpg,0.005890,0.000043,0.000032,0.000468,0.632771,0.020311,0.000285,0.340200
img_04013.jpg,0.008467,0.107246,0.000198,0.638884,0.000735,0.158179,0.000126,0.086166
img_07906.jpg,0.009985,0.000055,0.000780,0.000667,0.001289,0.012577,0.000481,0.974166
img_02135.jpg,0.067919,0.000188,0.004693,0.000209,0.900519,0.000730,0.000145,0.025596
img_05084.jpg,0.600073,0.004879,0.000881,0.000774,0.002064,0.011479,0.135239,0.244611
img_04128.jpg,0.206637,0.525012,0.002690,0.002694,0.024116,0.014121,0.007062,0.217669
img_03974.jpg,0.409270,0.000621,0.031077,0.000575,0.545786,0.001233,0.000222,0.011217
img_07543.jpg,0.020501,0.000292,0.000430,0.000048,0.978423,0.000064,0.000146,0.000095
img_05253.jpg,0.001765,0.000363,0.001518,0.000060,0.000139,0.003278,0.000211,0.992666
img_05813.jpg,0.896921,0.014878,0.003421,0.008123,0.003783,0.014237,0.003754,0.054882
img_00979.jpg,0.040344,0.001028,0.110505,0.000234,0.000507,0.017940,0.002959,0.826482
img_06684.jpg,0.901968,0.027826,0.005948,0.009085,0.007597,0.022898,0.002132,0.022546
img_06285.jpg,0.098518,0.002456,0.004968,0.002538,0.096199,0.004617,0.000561,0.790144
img_01222.jpg,0.678567,0.122494,0.013273,0.024543,0.003756,0.021576,0.030618,0.105172
img_01177.jpg,0.952320,0.007429,0.005204,0.001439,0.016341,0.002242,0.002617,0.012409
img_00582.jpg,0.743807,0.002116,0.001039,0.002409,0.059276,0.056242,0.001679,0.133431
img_01328.jpg,0.658095,0.007524,0.003535,0.098401,0.148986,0.038870,0.005564,0.039024
img_04712.jpg,0.277212,0.001817,0.001832,0.000695,0.018061,0.016814,0.001381,0.682189
img_07526.jpg,0.143637,0.003975,0.025748,0.000411,0.053587,0.297400,0.001294,0.473948
img_01188.jpg,0.127450,0.029781,0.001706,0.022716,0.005134,0.699685,0.007224,0.106305
img_07474.jpg,0.661004,0.045234,0.034570,0.020302,0.109790,0.007378,0.001332,0.120390
img_02074.jpg,0.953183,0.013917,0.004841,0.000817,0.005299,0.009012,0.000768,0.012162
img_04705.jpg,0.124598,0.066923,0.208953,0.003603,0.046973,0.005571,0.001958,0.541421
img_04310.jpg,0.873738,0.015478,0.006117,0.002476,0.031944,0.003954,0.000758,0.065536
img_01366.jpg,0.368750,0.074028,0.004410,0.024336,0.053986,0.384872,0.003835,0.085782
img_01413.jpg,0.862340,0.002888,0.002309,0.001277,0.040785,0.050885,0.001456,0.038059
img_01377.jpg,0.562943,0.018608,0.029984,0.005161,0.239447,0.013911,0.004134,0.125811
img_04511.jpg,0.152515,0.002527,0.000073,0.000546,0.223356,0.614368,0.006526,0.000089
img_04036.jpg,0.108201,0.007217,0.000767,0.000386,0.001071,0.001544,0.115014,0.765800
img_04369.jpg,0.704299,0.005617,0.000478,0.001033,0.014963,0.172939,0.006594,0.094077
img_02299.jpg,0.559953,0.110207,0.006297,0.200158,0.012598,0.064558,0.012626,0.033603
img_02607.jpg,0.391201,0.011908,0.131922,0.001485,0.329328,0.013515,0.003606,0.117035
img_05516.jpg,0.419382,0.129295,0.022767,0.003464,0.000391,0.049774,0.211051,0.163876
img_07051.jpg,0.190293,0.709805,0.000025,0.000321,0.000040,0.000682,0.000849,0.097984
img_06985.jpg,0.917550,0.005866,0.026620,0.000582,0.004229,0.023037,0.007334,0.014782
img_04247.jpg,0.532203,0.011623,0.000837,0.006174,0.036065,0.015747,0.288020,0.109331
img_03454.jpg,0.991658,0.000174,0.000011,0.000102,0.006607,0.000802,0.000427,0.000219
img_03502.jpg,0.554973,0.047990,0.001819,0.002628,0.023702,0.124730,0.018001,0.226157
img_06103.jpg,0.852925,0.000104,0.000068,0.000036,0.145181,0.001019,0.000030,0.000637
img_04991.jpg,0.038992,0.287163,0.002430,0.020376,0.000651,0.446919,0.023613,0.179855
img_06065.jpg,0.773256,0.003444,0.000417,0.000095,0.005205,0.049642,0.094953,0.072989
img_07910.jpg,0.983901,0.000199,0.001312,0.000344,0.001193,0.000884,0.000449,0.011717
img_00620.jpg,0.951034,0.005689,0.002794,0.000227,0.006121,0.001407,0.000272,0.032457
img_00175.jpg,0.332401,0.005515,0.000717,0.007247,0.012791,0.592600,0.001240,0.047488
img_06455.jpg,0.436649,0.038921,0.006066,0.001069,0.000795,0.280205,0.003258,0.233036
img_02077.jpg,0.528669,0.005376,0.003856,0.129098,0.047865,0.277358,0.005096,0.002683
img_00442.jpg,0.000115,0.000128,0.000346,0.000223,0.000150,0.003309,0.000067,0.995662
img_00292.jpg,0.453427,0.010474,0.001035,0.002398,0.005934,0.002379,0.036725,0.487627
img_02479.jpg,0.000000,0.000001,0.000001,0.000001,0.999981,0.000003,0.000001,0.000012
img_03711.jpg,0.941205,0.016551,0.009629,0.000121,0.010396,0.000208,0.001107,0.020783
img_03726.jpg,0.020798,0.463124,0.000176,0.296664,0.000420,0.180240,0.000245,0.038333
img_03270.jpg,0.047716,0.001165,0.000496,0.000228,0.001290,0.000290,0.000623,0.948192
img_01325.jpg,0.107656,0.346855,0.002066,0.003038,0.520381,0.000351,0.003911,0.015742
img_00172.jpg,0.010527,0.000142,0.000052,0.000030,0.988610,0.000274,0.000002,0.000363
img_03140.jpg,0.927166,0.006043,0.001531,0.005696,0.007606,0.023179,0.001713,0.027067
img_02285.jpg,0.830000,0.001258,0.000114,0.000527,0.158067,0.003527,0.000548,0.005958
img_00798.jpg,0.885529,0.008003,0.001703,0.004109,0.049289,0.021774,0.001513,0.028080
img_05539.jpg,0.215096,0.002978,0.001311,0.007324,0.020223,0.566411,0.003127,0.183530
img_02638.jpg,0.838889,0.005361,0.010854,0.014605,0.105544,0.000269,0.012446,0.012031
img_06207.jpg,0.385377,0.007240,0.002173,0.007318,0.066652,0.378328,0.003387,0.149525
img_03750.jpg,0.472171,0.004089,0.000531,0.001434,0.013009,0.307173,0.005145,0.196448
img_03749.jpg,0.660361,0.021125,0.001711,0.001829,0.001014,0.005530,0.012830,0.295602
img_04263.jpg,0.993394,0.001099,0.000431,0.000928,0.002444,0.000117,0.000307,0.001280
img_05989.jpg,0.862884,0.052094,0.017573,0.000741,0.007581,0.003578,0.004046,0.051503
img_05454.jpg,0.059833,0.001452,0.000761,0.002424,0.130896,0.009951,0.002939,0.791744
img_03239.jpg,0.011186,0.187057,0.000737,0.003925,0.038359,0.002546,0.735667,0.020525
img_02759.jpg,0.032790,0.000834,0.018514,0.000373,0.011025,0.051030,0.000752,0.884682
img_06849.jpg,0.451710,0.033047,0.005954,0.002923,0.018665,0.126857,0.090740,0.270104
img_05548.jpg,0.961620,0.003675,0.003989,0.006986,0.002769,0.017460,0.001302,0.002199
img_03128.jpg,0.703936,0.036926,0.001919,0.002541,0.004144,0.021547,0.027980,0.201006
img_04156.jpg,0.892193,0.015878,0.014093,0.000305,0.012689,0.061953,0.000214,0.002675
img_06373.jpg,0.022879,0.001200,0.022565,0.000084,0.000112,0.001719,0.000782,0.950659
img_03312.jpg,0.922710,0.025596,0.001391,0.005429,0.000277,0.015534,0.001223,0.027840
img_02305.jpg,0.008175,0.163571,0.000198,0.618354,0.002743,0.184652,0.000064,0.022242
img_01918.jpg,0.796255,0.005321,0.012057,0.132604,0.017955,0.012064,0.011324,0.012418
img_02993.jpg,0.010080,0.000466,0.005504,0.000244,0.004728,0.001632,0.000170,0.977176
img_07319.jpg,0.434888,0.143114,0.001985,0.001803,0.040278,0.075086,0.059511,0.243336
img_02857.jpg,0.202735,0.043097,0.000336,0.001230,0.719843,0.000970,0.009151,0.022638
img_06851.jpg,0.450309,0.051465,0.013247,0.001042,0.000827,0.122485,0.144468,0.216157
img_06611.jpg,0.001996,0.001026,0.112638,0.001235,0.009143,0.002442,0.000600,0.870920
img_04860.jpg,0.785898,0.001274,0.008590,0.010103,0.076439,0.037134,0.004149,0.076414
img_06860.jpg,0.009578,0.000153,0.000020,0.000013,0.989102,0.000003,0.000011,0.001119
img_04476.jpg,0.810476,0.002954,0.000369,0.001085,0.006945,0.056978,0.039790,0.081402
img_03805.jpg,0.916248,0.005644,0.002843,0.003819,0.001791,0.004946,0.006007,0.058703
img_03554.jpg,0.993822,0.002069,0.000076,0.000098,0.000681,0.000190,0.002671,0.000393
img_00007.jpg,0.768660,0.060502,0.003996,0.047876,0.000952,0.013110,0.020241,0.084663
img_03674.jpg,0.085915,0.001337,0.003141,0.004581,0.890989,0.001268,0.000368,0.012401
img_07563.jpg,0.186410,0.132691,0.000626,0.021312,0.000702,0.009658,0.085905,0.562696
img_04719.jpg,0.363435,0.054899,0.000625,0.000636,0.277835,0.040616,0.011707,0.250247
img_06698.jpg,0.423504,0.003672,0.001314,0.002216,0.018736,0.390809,0.007474,0.152275
img_06916.jpg,0.764246,0.043103,0.016782,0.023736,0.104868,0.020418,0.002615,0.024232
img_07561.jpg,0.633354,0.071198,0.001293,0.000437,0.000624,0.059463,0.002988,0.230644
img_04183.jpg,0.790547,0.001256,0.001580,0.000572,0.196178,0.007716,0.000225,0.001926
img_03715.jpg,0.555495,0.094594,0.007633,0.043398,0.146791,0.029955,0.009062,0.113072
img_02209.jpg,0.108980,0.007247,0.000018,0.000456,0.000633,0.870122,0.000165,0.012378
img_04661.jpg,0.863080,0.020395,0.001693,0.004080,0.012833,0.023744,0.002697,0.071476
img_01824.jpg,0.635369,0.002231,0.000786,0.000439,0.000797,0.328259,0.007617,0.024501
img_05095.jpg,0.972253,0.010018,0.002371,0.000073,0.000110,0.003629,0.005133,0.006413
img_03760.jpg,0.833226,0.015603,0.006864,0.000290,0.002007,0.055644,0.074155,0.012211
img_01856.jpg,0.992455,0.000569,0.000111,0.000149,0.000507,0.000133,0.000022,0.006053
img_01208.jpg,0.106140,0.003842,0.002541,0.000641,0.666551,0.030443,0.001747,0.188095
img_02789.jpg,0.117984,0.003898,0.003119,0.004792,0.401252,0.000860,0.464175,0.003920
img_05438.jpg,0.820241,0.008159,0.006571,0.001374,0.012560,0.125587,0.003680,0.021827
img_00432.jpg,0.115775,0.000128,0.017591,0.000384,0.009743,0.853746,0.000078,0.002553
img_06477.jpg,0.243717,0.092311,0.001957,0.001190,0.002864,0.010687,0.523768,0.123506
img_02563.jpg,0.084508,0.000928,0.001358,0.001162,0.898933,0.010358,0.000133,0.002620
img_00587.jpg,0.924947,0.008440,0.000256,0.000115,0.001416,0.008066,0.001571,0.055189
img_04419.jpg,0.005551,0.000621,0.000330,0.000278,0.991654,0.000364,0.000254,0.000947
img_01627.jpg,0.858856,0.008316,0.005105,0.008194,0.002270,0.090004,0.002980,0.024274
img_03584.jpg,0.004476,0.004415,0.009527,0.000170,0.018347,0.000209,0.000263,0.962593
img_00808.jpg,0.896660,0.057719,0.002194,0.004266,0.001689,0.000362,0.013611,0.023499
img_02865.jpg,0.001269,0.001068,0.000043,0.000950,0.925322,0.000562,0.000174,0.070613
img_04507.jpg,0.022968,0.010706,0.033356,0.000891,0.001530,0.002907,0.000551,0.927092
img_06076.jpg,0.573579,0.071249,0.000744,0.001928,0.326966,0.005211,0.004090,0.016234
img_03055.jpg,0.903003,0.001024,0.007424,0.002494,0.007054,0.072288,0.001610,0.005104
img_05948.jpg,0.439654,0.005461,0.000246,0.005665,0.000275,0.395373,0.023841,0.129484
img_06922.jpg,0.264476,0.055024,0.003252,0.002567,0.000757,0.026534,0.252907,0.394483
img_05623.jpg,0.801238,0.015804,0.029327,0.015481,0.058435,0.028386,0.004344,0.046985
img_03422.jpg,0.821192,0.018545,0.024155,0.037703,0.020100,0.061383,0.003697,0.013225
img_03946.jpg,0.028153,0.294369,0.000341,0.380726,0.000489,0.155143,0.000178,0.140602
img_05055.jpg,0.932976,0.001810,0.001568,0.000026,0.022546,0.001584,0.002120,0.037370
img_03490.jpg,0.105955,0.837360,0.001073,0.005487,0.009242,0.000730,0.000373,0.039782
img_00650.jpg,0.903943,0.004393,0.012051,0.000546,0.004496,0.038485,0.005377,0.030708
img_06369.jpg,0.000451,0.000000,0.000282,0.000051,0.971893,0.000015,0.000000,0.027307
img_01511.jpg,0.864543,0.003546,0.090905,0.001949,0.011607,0.019194,0.001430,0.006826
img_04496.jpg,0.940221,0.000575,0.000163,0.000178,0.004291,0.000092,0.000185,0.054295
img_00612.jpg,0.423017,0.003808,0.000341,0.002215,0.000466,0.516389,0.031562,0.022203
img_00590.jpg,0.520469,0.156131,0.000794,0.000274,0.006316,0.161920,0.005040,0.149057
img_06346.jpg,0.323466,0.006717,0.000891,0.001246,0.002622,0.621206,0.001669,0.042182
img_03064.jpg,0.667583,0.010455,0.000514,0.000244,0.006936,0.080960,0.126937,0.106370
img_06210.jpg,0.897165,0.008760,0.000013,0.000038,0.001163,0.068375,0.004001,0.020486
img_06475.jpg,0.453395,0.002015,0.002395,0.000952,0.004700,0.062117,0.222179,0.252247
img_07191.jpg,0.235573,0.002829,0.035666,0.000865,0.018964,0.676948,0.000376,0.028780
img_07179.jpg,0.011760,0.000078,0.000051,0.000100,0.987152,0.000380,0.000009,0.000470
img_05489.jpg,0.879390,0.033311,0.004354,0.004728,0.000455,0.041616,0.019899,0.016247
img_04004.jpg,0.307822,0.035596,0.234959,0.001217,0.002902,0.344117,0.007679,0.065709
img_06522.jpg,0.700317,0.001568,0.000046,0.000143,0.000502,0.010304,0.000462,0.286657
img_07514.jpg,0.534328,0.000220,0.001223,0.001812,0.178787,0.077489,0.000740,0.205400
img_01198.jpg,0.381928,0.054399,0.004881,0.002693,0.527733,0.007231,0.002775,0.018359
img_04671.jpg,0.813705,0.008081,0.000937,0.000560,0.003293,0.018254,0.008213,0.146957
img_06946.jpg,0.529562,0.128441,0.001413,0.001706,0.017053,0.125423,0.096975,0.099427
img_01035.jpg,0.835714,0.039068,0.005697,0.001190,0.018788,0.080481,0.003071,0.015991
img_02899.jpg,0.594031,0.014573,0.045826,0.068140,0.111259,0.016991,0.005576,0.143604
img_01253.jpg,0.009263,0.000521,0.000325,0.001413,0.003071,0.002499,0.000874,0.982033
img_01771.jpg,0.982295,0.008779,0.000589,0.000507,0.002437,0.003163,0.001179,0.001050
img_06800.jpg,0.799932,0.003247,0.000304,0.001060,0.180770,0.013741,0.000106,0.000840
img_05119.jpg,0.900070,0.000951,0.001642,0.006640,0.000763,0.049287,0.000466,0.040181
img_05879.jpg,0.927977,0.000827,0.000141,0.000124,0.053149,0.015325,0.000380,0.002077
img_05211.jpg,0.342073,0.006005,0.005832,0.001127,0.004943,0.002852,0.350426,0.286742
img_02546.jpg,0.127990,0.003934,0.003105,0.000882,0.023466,0.004939,0.001303,0.834381
img_04532.jpg,0.044797,0.081859,0.004895,0.171588,0.002577,0.585189,0.006451,0.102642
img_03886.jpg,0.979403,0.000022,0.000883,0.000194,0.003616,0.000723,0.000504,0.014654
img_01616.jpg,0.881048,0.005823,0.001012,0.000807,0.091127,0.002019,0.005974,0.012190
img_02641.jpg,0.931232,0.010292,0.007961,0.000539,0.024908,0.001354,0.001152,0.022561
img_00102.jpg,0.380217,0.117463,0.001633,0.003966,0.033539,0.056210,0.085175,0.321798
img_00760.jpg,0.520704,0.053933,0.048591,0.174091,0.041123,0.090956,0.014751,0.055851
img_00212.jpg,0.491332,0.000404,0.000186,0.005048,0.028984,0.006055,0.000728,0.467264
img_06939.jpg,0.526649,0.043534,0.002540,0.001345,0.000644,0.016317,0.348303,0.060668
img_07062.jpg,0.021016,0.001751,0.073177,0.003833,0.787498,0.082857,0.000282,0.029586
img_05209.jpg,0.863706,0.001335,0.007182,0.003282,0.111312,0.007511,0.000473,0.005199
img_01782.jpg,0.000184,0.000008,0.000017,0.000009,0.999254,0.000459,0.000033,0.000037
img_02400.jpg,0.900692,0.005646,0.012149,0.000816,0.038792,0.027602,0.002046,0.012258
img_01548.jpg,0.937394,0.000129,0.000198,0.000227,0.005368,0.002211,0.000256,0.054216
img_00765.jpg,0.086143,0.004893,0.000554,0.006060,0.005094,0.873980,0.000628,0.022648
img_07044.jpg,0.620163,0.000409,0.000699,0.002182,0.258648,0.000660,0.002418,0.114822
img_03866.jpg,0.916011,0.000547,0.000265,0.007534,0.040928,0.030834,0.000421,0.003460
img_00726.jpg,0.955173,0.001883,0.000072,0.002864,0.008135,0.000793,0.008146,0.022933
img_06101.jpg,0.009248,0.000004,0.001430,0.000012,0.000064,0.000014,0.000029,0.989199
img_01862.jpg,0.492238,0.063486,0.010352,0.001184,0.032706,0.355598,0.003468,0.040970
img_02625.jpg,0.103908,0.004804,0.002061,0.000345,0.000154,0.809243,0.003849,0.075635
img_00180.jpg,0.395746,0.006739,0.001213,0.000881,0.000965,0.000977,0.000558,0.592921
img_03410.jpg,0.962120,0.001815,0.000892,0.001330,0.026458,0.001062,0.000504,0.005819
img_07054.jpg,0.079239,0.583683,0.009676,0.001739,0.003312,0.034646,0.007986,0.279720
img_03116.jpg,0.001119,0.000450,0.000040,0.000143,0.959130,0.000159,0.000485,0.038473
img_00374.jpg,0.482317,0.034435,0.001566,0.007743,0.003166,0.000283,0.000236,0.470253
img_00950.jpg,0.316075,0.003322,0.022826,0.002606,0.527450,0.010182,0.002717,0.114822
img_00282.jpg,0.327778,0.006409,0.001203,0.013401,0.068510,0.567150,0.001024,0.014526
img_05595.jpg,0.834524,0.003378,0.001320,0.000392,0.017742,0.002179,0.007744,0.132721
img_00376.jpg,0.802393,0.000251,0.000866,0.000038,0.005414,0.010219,0.002446,0.178372
img_02082.jpg,0.415486,0.001233,0.001184,0.001881,0.119488,0.006229,0.444117,0.010382
img_04814.jpg,0.005745,0.003435,0.194772,0.000782,0.000484,0.000901,0.000908,0.792974
img_03195.jpg,0.665853,0.006559,0.000406,0.001789,0.020201,0.045791,0.006118,0.253282
img_07409.jpg,0.877923,0.017875,0.003545,0.000501,0.012544,0.016224,0.000768,0.070619
img_02889.jpg,0.841496,0.012313,0.052954,0.002074,0.056046,0.005532,0.002908,0.026678
img_05292.jpg,0.918795,0.004487,0.000152,0.000185,0.002300,0.014686,0.000789,0.058606
img_03942.jpg,0.794314,0.092635,0.010581,0.006325,0.002698,0.010755,0.019810,0.062881
img_06021.jpg,0.000865,0.026874,0.145483,0.005050,0.007519,0.016633,0.004501,0.793074
img_00075.jpg,0.740420,0.006250,0.002603,0.000152,0.004327,0.245067,0.000414,0.000767
img_05805.jpg,0.759949,0.055835,0.014932,0.001450,0.023767,0.000897,0.003023,0.140147
img_04073.jpg,0.012267,0.304146,0.000645,0.218007,0.004427,0.098465,0.002656,0.359388
img_04478.jpg,0.933438,0.021393,0.005197,0.001099,0.016950,0.006696,0.000767,0.014460
img_07005.jpg,0.971044,0.005265,0.000285,0.000539,0.000774,0.020286,0.000206,0.001601
img_04240.jpg,0.540758,0.002473,0.003000,0.000829,0.062204,0.024531,0.011695,0.354509
img_03945.jpg,0.074150,0.009837,0.000597,0.000263,0.000759,0.897475,0.001580,0.015338
img_05479.jpg,0.708046,0.002605,0.001034,0.007286,0.022736,0.016169,0.001336,0.240787
img_06806.jpg,0.463765,0.064626,0.006314,0.002263,0.441304,0.000039,0.001026,0.020663
img_03014.jpg,0.000289,0.000170,0.000028,0.000028,0.998922,0.000404,0.000003,0.000155
img_04061.jpg,0.561857,0.018642,0.000338,0.008286,0.007188,0.199756,0.021764,0.182169
img_05520.jpg,0.283389,0.005054,0.001576,0.005858,0.001712,0.652289,0.000574,0.049548
img_07213.jpg,0.075711,0.000191,0.007076,0.000510,0.016337,0.895541,0.000580,0.004055
img_06506.jpg,0.708279,0.026852,0.000112,0.000067,0.215852,0.000146,0.000110,0.048582
img_02270.jpg,0.601191,0.120894,0.013620,0.004982,0.027678,0.076654,0.006507,0.148474
img_06783.jpg,0.765843,0.026484,0.000331,0.000451,0.009283,0.063240,0.002271,0.132095
img_00040.jpg,0.228648,0.115683,0.005823,0.001360,0.001196,0.198531,0.095121,0.353638
img_00948.jpg,0.589142,0.000263,0.016854,0.000267,0.315315,0.001926,0.000326,0.075906
img_04282.jpg,0.521398,0.022147,0.001498,0.005284,0.005729,0.245246,0.011826,0.186873
img_02904.jpg,0.939475,0.051185,0.005124,0.000164,0.001623,0.000363,0.000325,0.001740
img_01286.jpg,0.687094,0.006864,0.001529,0.000055,0.180879,0.001592,0.000243,0.121743
img_02487.jpg,0.801140,0.001621,0.000073,0.000047,0.029933,0.000678,0.000705,0.165803
img_06097.jpg,0.193837,0.147411,0.018937,0.008370,0.032617,0.070036,0.163750,0.365042
img_04750.jpg,0.029862,0.095212,0.000486,0.000168,0.866540,0.000286,0.002571,0.004876
img_03718.jpg,0.907657,0.002131,0.027375,0.009375,0.035626,0.003877,0.000965,0.012994
img_06261.jpg,0.487247,0.016107,0.002990,0.001232,0.012992,0.093671,0.006768,0.378992
img_02911.jpg,0.464465,0.009557,0.009600,0.006423,0.456747,0.013924,0.004659,0.034625
img_01538.jpg,0.688319,0.048515,0.003323,0.013179,0.018197,0.218097,0.006217,0.004152
img_04044.jpg,0.871548,0.018221,0.013561,0.001078,0.073545,0.005092,0.001322,0.015634
img_02679.jpg,0.105314,0.266117,0.020263,0.004787,0.512555,0.000990,0.013088,0.076887
img_00129.jpg,0.399426,0.015152,0.003131,0.000460,0.004258,0.160833,0.119465,0.297274
img_00723.jpg,0.004618,0.034046,0.000128,0.001708,0.945927,0.000015,0.013129,0.000428
img_05731.jpg,0.045766,0.000224,0.000058,0.000036,0.953188,0.000051,0.000303,0.000373
img_00828.jpg,0.001262,0.000028,0.000007,0.000030,0.994750,0.001683,0.000025,0.002215
img_05078.jpg,0.164669,0.003071,0.005111,0.004257,0.018468,0.037395,0.010459,0.756570
img_04003.jpg,0.924967,0.000565,0.006413,0.001001,0.033792,0.015965,0.000807,0.016489
img_00141.jpg,0.000169,0.007847,0.085787,0.000262,0.000606,0.002103,0.000253,0.902972
img_06986.jpg,0.640662,0.184100,0.005690,0.011689,0.001402,0.075463,0.008335,0.072659
img_05682.jpg,0.378751,0.006661,0.003618,0.002236,0.006981,0.069630,0.335444,0.196678
img_02646.jpg,0.016322,0.000238,0.000108,0.000160,0.000569,0.006408,0.000107,0.976088
img_03069.jpg,0.294133,0.002235,0.000542,0.006588,0.003953,0.241301,0.059358,0.391890
img_02943.jpg,0.949620,0.007793,0.000369,0.000852,0.001017,0.032681,0.000448,0.007221
img_04370.jpg,0.925382,0.010761,0.002916,0.003348,0.043666,0.007448,0.000374,0.006105
img_00855.jpg,0.734288,0.007181,0.010295,0.012829,0.187514,0.008776,0.002016,0.037103
img_03952.jpg,0.618118,0.005365,0.075152,0.002027,0.021578,0.050196,0.004786,0.222778
img_06914.jpg,0.001310,0.000113,0.000312,0.001367,0.996436,0.000199,0.000144,0.000120
img_04250.jpg,0.077585,0.001715,0.000612,0.000414,0.913059,0.001984,0.000530,0.004101
img_01963.jpg,0.998708,0.000022,0.000002,0.000001,0.000265,0.000006,0.000002,0.000994
img_01825.jpg,0.232966,0.680843,0.014267,0.001218,0.055595,0.002928,0.003070,0.009113
img_00914.jpg,0.037486,0.006403,0.022523,0.000123,0.004214,0.000333,0.000056,0.928862
img_03222.jpg,0.467240,0.013249,0.017227,0.005612,0.024704,0.437072,0.016830,0.018066
img_06685.jpg,0.000250,0.001371,0.000082,0.008327,0.789295,0.004505,0.002627,0.193543
img_03082.jpg,0.443822,0.549712,0.000086,0.000047,0.000027,0.000257,0.000025,0.006024
img_00543.jpg,0.999399,0.000111,0.000136,0.000014,0.000017,0.000075,0.000138,0.000110
img_00302.jpg,0.325757,0.042388,0.007746,0.000869,0.003703,0.272402,0.062937,0.284198
img_06147.jpg,0.647296,0.280771,0.004412,0.000534,0.010966,0.000076,0.020698,0.035246
img_06268.jpg,0.294755,0.010126,0.099092,0.000921,0.002956,0.014990,0.001329,0.575832
img_05085.jpg,0.483764,0.007617,0.014021,0.000716,0.197231,0.000868,0.000774,0.295008
img_00708.jpg,0.129733,0.002530,0.000767,0.001758,0.000127,0.150427,0.168021,0.546636
img_06042.jpg,0.498238,0.038818,0.017518,0.001043,0.002167,0.089888,0.127054,0.225273
img_01995.jpg,0.011174,0.355438,0.000300,0.355151,0.003129,0.167343,0.003349,0.104116
img_06549.jpg,0.768935,0.006718,0.006961,0.000933,0.011899,0.144937,0.002121,0.057497
img_06137.jpg,0.000041,0.000994,0.000259,0.000038,0.000016,0.000153,0.000031,0.998468
img_06662.jpg,0.449854,0.072790,0.063626,0.000382,0.395799,0.009468,0.005190,0.002891
img_06440.jpg,0.102229,0.008257,0.010740,0.000701,0.006004,0.804143,0.001691,0.066235
img_03547.jpg,0.953598,0.000626,0.001548,0.001848,0.005377,0.026641,0.000898,0.009463
img_05434.jpg,0.141217,0.000527,0.000167,0.004575,0.837406,0.004188,0.000359,0.011562
img_00161.jpg,0.002688,0.000253,0.000057,0.000425,0.001806,0.010288,0.000491,0.983991
img_06001.jpg,0.936888,0.007016,0.001209,0.003321,0.005955,0.032343,0.000576,0.012691
img_05440.jpg,0.915795,0.000429,0.001632,0.003294,0.030898,0.014623,0.000669,0.032661
img_04285.jpg,0.693708,0.033148,0.000354,0.003586,0.000774,0.051198,0.051929,0.165302
img_00716.jpg,0.303352,0.102611,0.000650,0.012716,0.000451,0.064667,0.064653,0.450900
img_07231.jpg,0.416182,0.573862,0.000137,0.000527,0.000440,0.001206,0.000211,0.007435
img_02749.jpg,0.950613,0.000377,0.000495,0.000941,0.022530,0.004460,0.000275,0.020308
img_06780.jpg,0.272255,0.199341,0.001872,0.002705,0.005109,0.042322,0.098283,0.378114
img_07023.jpg,0.979862,0.001287,0.001792,0.000153,0.011938,0.000276,0.000185,0.004506
img_02083.jpg,0.015765,0.001415,0.001154,0.000594,0.969591,0.003727,0.000591,0.007162
img_04237.jpg,0.252359,0.535829,0.012212,0.000351,0.043315,0.001610,0.000660,0.153664
img_00959.jpg,0.987424,0.000842,0.000174,0.000325,0.002853,0.000111,0.000800,0.007471
img_06067.jpg,0.000538,0.069207,0.384144,0.000924,0.001636,0.002461,0.001675,0.539415
img_05953.jpg,0.255327,0.003387,0.643339,0.001581,0.001144,0.014253,0.028593,0.052375
img_07663.jpg,0.072752,0.716536,0.000779,0.001744,0.000002,0.002117,0.002254,0.203816
img_05754.jpg,0.925238,0.006945,0.001361,0.000479,0.002711,0.023928,0.000662,0.038675
img_03847.jpg,0.048911,0.145143,0.001057,0.243579,0.000165,0.540577,0.001112,0.019455
img_02771.jpg,0.800318,0.019874,0.008863,0.122517,0.001598,0.023549,0.003645,0.019636
img_06547.jpg,0.972550,0.003255,0.000945,0.003140,0.006004,0.002558,0.000862,0.010686
img_03426.jpg,0.975981,0.000107,0.000127,0.000037,0.004418,0.001319,0.000208,0.017802
img_03346.jpg,0.892808,0.014340,0.001294,0.015146,0.067298,0.006713,0.000501,0.001899
img_04306.jpg,0.990400,0.000736,0.000427,0.000268,0.002589,0.000449,0.000721,0.004410
img_01495.jpg,0.566109,0.026066,0.005884,0.183228,0.007698,0.006445,0.003714,0.200856
img_04520.jpg,0.239357,0.007258,0.001124,0.001657,0.450283,0.002053,0.274748,0.023519
img_05743.jpg,0.490283,0.038167,0.005585,0.010548,0.050166,0.196788,0.005253,0.203210
img_04129.jpg,0.521387,0.257058,0.114044,0.025826,0.000837,0.015209,0.053077,0.012563
img_04268.jpg,0.453885,0.021835,0.001863,0.000215,0.002679,0.038108,0.004445,0.476971
img_03475.jpg,0.000230,0.000072,0.000017,0.000010,0.999546,0.000003,0.000000,0.000122
img_06311.jpg,0.906297,0.014859,0.006219,0.000090,0.021575,0.039678,0.000718,0.010565
img_06469.jpg,0.676315,0.007421,0.017226,0.249067,0.000537,0.003110,0.000892,0.045431
img_00780.jpg,0.001439,0.000390,0.000601,0.000056,0.000715,0.002937,0.000241,0.993619
img_00018.jpg,0.957596,0.014825,0.002872,0.000333,0.000905,0.014348,0.002623,0.006498
img_01405.jpg,0.790588,0.004623,0.003255,0.002310,0.175713,0.004089,0.002180,0.017242
img_04324.jpg,0.671909,0.017945,0.002131,0.003168,0.187233,0.004984,0.001235,0.111396
img_06037.jpg,0.531212,0.007802,0.001903,0.002492,0.125566,0.004982,0.279413,0.046631
img_06038.jpg,0.010559,0.000242,0.016639,0.000467,0.000979,0.003061,0.000214,0.967838
img_05186.jpg,0.953755,0.000581,0.004890,0.000203,0.001425,0.001026,0.002326,0.035794
img_03801.jpg,0.986326,0.001629,0.000157,0.000079,0.005741,0.000403,0.000161,0.005504
img_05038.jpg,0.753707,0.005023,0.000262,0.000116,0.002085,0.007086,0.024309,0.207412
img_04975.jpg,0.573535,0.010301,0.003845,0.005227,0.029836,0.318901,0.011509,0.046846
img_05293.jpg,0.042949,0.195997,0.003516,0.487648,0.024738,0.107116,0.025560,0.112476
img_03627.jpg,0.992635,0.000383,0.000808,0.000015,0.005176,0.000537,0.000093,0.000352
img_07420.jpg,0.175733,0.003273,0.000823,0.802492,0.005786,0.008514,0.001614,0.001765
img_07199.jpg,0.636933,0.045089,0.026620,0.001851,0.135247,0.050209,0.002108,0.101942
img_06424.jpg,0.831351,0.005908,0.003705,0.001286,0.083049,0.044882,0.005283,0.024535
img_07352.jpg,0.928309,0.000212,0.000050,0.000008,0.010164,0.000446,0.008254,0.052556
img_07578.jpg,0.000265,0.001604,0.001862,0.000515,0.000443,0.000248,0.000022,0.995040
img_05654.jpg,0.857961,0.008549,0.009015,0.062764,0.002686,0.036985,0.003537,0.018503
img_05475.jpg,0.000715,0.000246,0.000072,0.000320,0.998500,0.000038,0.000025,0.000083
img_01831.jpg,0.742136,0.006194,0.006566,0.039800,0.129021,0.051984,0.001501,0.022798
img_00244.jpg,0.730968,0.021126,0.000791,0.002810,0.000642,0.145024,0.004502,0.094138
img_05572.jpg,0.288044,0.002655,0.002118,0.000430,0.008510,0.007125,0.121743,0.569375
img_05817.jpg,0.389377,0.059674,0.001599,0.009542,0.001616,0.012051,0.018765,0.507378
img_03260.jpg,0.901301,0.002777,0.002704,0.001110,0.043152,0.030224,0.000786,0.017944
img_03199.jpg,0.712516,0.044499,0.001465,0.000359,0.010330,0.014369,0.037895,0.178566
img_04204.jpg,0.071859,0.001254,0.000357,0.000115,0.000585,0.000489,0.000093,0.925249
img_00230.jpg,0.694836,0.135868,0.062218,0.004840,0.000758,0.027107,0.044661,0.029710
img_07224.jpg,0.004413,0.000030,0.000083,0.000029,0.987680,0.002202,0.000030,0.005534
img_01681.jpg,0.019242,0.002099,0.000054,0.000125,0.001935,0.002356,0.002540,0.971649
img_00857.jpg,0.949682,0.001638,0.002839,0.002081,0.034472,0.001338,0.002062,0.005888
img_03166.jpg,0.836807,0.002734,0.001931,0.002256,0.075936,0.003333,0.000906,0.076097
img_02565.jpg,0.702043,0.069588,0.001222,0.000875,0.008907,0.056631,0.003929,0.156806
img_07833.jpg,0.814681,0.010427,0.002351,0.040495,0.005712,0.007886,0.011349,0.107099
img_00493.jpg,0.528446,0.015102,0.022953,0.016373,0.141281,0.059540,0.001376,0.214929
img_06059.jpg,0.037963,0.003045,0.000283,0.000337,0.954789,0.002348,0.000083,0.001153
img_07434.jpg,0.122483,0.024285,0.000613,0.000372,0.841480,0.000120,0.004607,0.006039
img_00109.jpg,0.871018,0.000141,0.000032,0.000035,0.127616,0.000035,0.000116,0.001007
img_07043.jpg,0.038558,0.000959,0.003881,0.000991,0.946501,0.000085,0.000523,0.008503
img_00985.jpg,0.284052,0.003662,0.002733,0.000996,0.000485,0.001301,0.160554,0.546218
img_04233.jpg,0.001399,0.153623,0.000057,0.247224,0.059711,0.537617,0.000061,0.000308
img_05967.jpg,0.672816,0.259754,0.006166,0.002617,0.014639,0.016851,0.005346,0.021813
img_04101.jpg,0.725741,0.036707,0.001934,0.000673,0.130368,0.093822,0.005403,0.005351
img_00833.jpg,0.161398,0.002264,0.001415,0.002042,0.007194,0.037142,0.025559,0.762986
img_03283.jpg,0.877413,0.022617,0.000488,0.000240,0.000110,0.000782,0.000944,0.097405
img_00816.jpg,0.965560,0.000208,0.000316,0.000503,0.008279,0.000531,0.000369,0.024234
img_01102.jpg,0.229518,0.062114,0.007623,0.003317,0.583670,0.000091,0.000469,0.113200
img_02384.jpg,0.450904,0.012693,0.004797,0.002108,0.002083,0.172488,0.080911,0.274016
img_00598.jpg,0.751109,0.100819,0.004053,0.086497,0.006611,0.000985,0.000826,0.049100
img_04432.jpg,0.867410,0.013518,0.000669,0.000721,0.000415,0.002129,0.114817,0.000321
img_07905.jpg,0.928213,0.004244,0.004067,0.000162,0.004234,0.003027,0.007612,0.048441
img_05657.jpg,0.473582,0.026130,0.002593,0.001244,0.477403,0.005760,0.005446,0.007841
img_00469.jpg,0.887455,0.014951,0.002451,0.002644,0.038003,0.018800,0.001489,0.034206
img_04138.jpg,0.003785,0.000102,0.000218,0.000068,0.994956,0.000079,0.000102,0.000690
img_04562.jpg,0.070143,0.001485,0.001668,0.000351,0.001319,0.003797,0.001735,0.919501
img_03563.jpg,0.465131,0.308167,0.003732,0.155719,0.000830,0.001208,0.000082,0.065132
img_03252.jpg,0.991221,0.000608,0.000571,0.000083,0.001137,0.004217,0.000477,0.001686
img_00398.jpg,0.886372,0.011042,0.000242,0.000636,0.011141,0.002011,0.039165,0.049391
img_06658.jpg,0.513372,0.029876,0.001644,0.004801,0.027802,0.042833,0.029436,0.350234
img_06637.jpg,0.024041,0.002481,0.000451,0.000257,0.971126,0.000378,0.000008,0.001258
img_05722.jpg,0.599088,0.004535,0.001024,0.007152,0.039700,0.000551,0.070801,0.277149
img_07467.jpg,0.785182,0.014131,0.011241,0.000096,0.002258,0.001653,0.013364,0.172075
img_05269.jpg,0.720767,0.010104,0.001163,0.000146,0.002232,0.002647,0.002516,0.260424
img_01289.jpg,0.976798,0.001817,0.000090,0.000022,0.000414,0.010741,0.000058,0.010059
img_05718.jpg,0.002268,0.227856,0.000308,0.554086,0.001875,0.173923,0.004195,0.035489
img_06003.jpg,0.558317,0.029005,0.027851,0.005085,0.024564,0.066813,0.000878,0.287486
img_02268.jpg,0.900702,0.002035,0.007884,0.007968,0.042365,0.000917,0.002027,0.036103
img_05439.jpg,0.837470,0.001690,0.001216,0.008572,0.085414,0.041216,0.000805,0.023617
img_01022.jpg,0.720655,0.019658,0.003733,0.014264,0.145719,0.071377,0.001298,0.023296
img_02916.jpg,0.894603,0.005758,0.006830,0.001456,0.059274,0.010259,0.000661,0.021159
img_05794.jpg,0.871726,0.014211,0.007212,0.001901,0.028205,0.023132,0.003719,0.049893
img_01687.jpg,0.244592,0.043147,0.000857,0.000157,0.002078,0.001788,0.002681,0.704700
img_00272.jpg,0.897662,0.032897,0.010423,0.003002,0.010115,0.037951,0.000394,0.007555
img_00170.jpg,0.923277,0.001609,0.001939,0.004242,0.046070,0.006059,0.000371,0.016433
img_00654.jpg,0.800976,0.160350,0.003554,0.000106,0.007450,0.001139,0.001119,0.025305
img_02964.jpg,0.000141,0.001399,0.082237,0.000187,0.000027,0.000254,0.001171,0.914583
img_03361.jpg,0.179263,0.402983,0.076202,0.005820,0.118130,0.042733,0.002710,0.172158
img_03210.jpg,0.000393,0.009805,0.065975,0.000922,0.000659,0.005522,0.002327,0.914397
img_02540.jpg,0.422513,0.000724,0.006641,0.000838,0.040923,0.513553,0.001637,0.013172
img_06033.jpg,0.010898,0.001064,0.158112,0.000489,0.003485,0.000017,0.000325,0.825610
img_05584.jpg,0.976781,0.011304,0.003856,0.000178,0.002058,0.000104,0.000146,0.005573
img_06368.jpg,0.152663,0.001914,0.002195,0.001378,0.037094,0.788485,0.005386,0.010886
img_07147.jpg,0.007757,0.000044,0.000006,0.000011,0.990088,0.001740,0.000008,0.000345
img_06812.jpg,0.756634,0.011291,0.000074,0.000114,0.216289,0.001201,0.000217,0.014180
img_01860.jpg,0.904219,0.002465,0.004545,0.000446,0.002866,0.013245,0.014156,0.058058
img_04856.jpg,0.919304,0.006779,0.003610,0.000768,0.058224,0.000663,0.000367,0.010286
img_06831.jpg,0.844799,0.144510,0.000025,0.000510,0.000189,0.002956,0.000265,0.006746
img_04386.jpg,0.510726,0.014657,0.001412,0.002992,0.016068,0.191481,0.101059,0.161605
img_00591.jpg,0.514594,0.004449,0.000226,0.001783,0.005024,0.009336,0.009778,0.454809
img_06412.jpg,0.604858,0.016856,0.003587,0.003522,0.025274,0.031239,0.091706,0.222958
img_01717.jpg,0.154527,0.276537,0.000820,0.009198,0.474682,0.000257,0.052730,0.031249
img_02977.jpg,0.280798,0.058045,0.005333,0.001488,0.643439,0.000948,0.003953,0.005996
img_07799.jpg,0.737202,0.009842,0.002894,0.001711,0.026920,0.123073,0.000427,0.097931
img_01874.jpg,0.445414,0.012918,0.003297,0.009910,0.015849,0.235734,0.058287,0.218590
img_03892.jpg,0.110880,0.182176,0.000833,0.004834,0.008612,0.254713,0.011594,0.426360
img_02699.jpg,0.655635,0.037195,0.000741,0.001472,0.149616,0.001342,0.094207,0.059792
img_06294.jpg,0.944220,0.005715,0.000299,0.000510,0.045385,0.001371,0.000835,0.001664
img_06203.jpg,0.595753,0.005750,0.000777,0.000561,0.013882,0.019645,0.004176,0.359455
img_06899.jpg,0.512194,0.002747,0.001836,0.002137,0.327459,0.005010,0.066233,0.082384
img_03809.jpg,0.793462,0.163733,0.022520,0.001447,0.001095,0.004188,0.001068,0.012486
img_04740.jpg,0.199914,0.000526,0.036635,0.000449,0.031028,0.721969,0.000140,0.009339
img_00518.jpg,0.998036,0.000117,0.000033,0.000254,0.000815,0.000299,0.000118,0.000328
img_01561.jpg,0.031366,0.000032,0.000022,0.000063,0.968338,0.000128,0.000004,0.000047
img_05613.jpg,0.503439,0.086246,0.002971,0.004910,0.018582,0.036013,0.052023,0.295816
img_06010.jpg,0.617223,0.005037,0.000113,0.013803,0.012198,0.008867,0.019895,0.322864
img_05558.jpg,0.803988,0.025546,0.000503,0.000836,0.012703,0.051406,0.002586,0.102433
img_06893.jpg,0.682532,0.012251,0.003375,0.001431,0.005918,0.156053,0.002252,0.136189
img_05185.jpg,0.925165,0.001188,0.000257,0.000108,0.000642,0.000514,0.000217,0.071910
img_03074.jpg,0.937291,0.012047,0.016500,0.001302,0.010885,0.008092,0.003045,0.010839
img_01684.jpg,0.515106,0.013716,0.008472,0.000622,0.011882,0.033962,0.000982,0.415259
img_03297.jpg,0.960909,0.007840,0.017692,0.000931,0.007267,0.001319,0.000916,0.003125
img_05857.jpg,0.464045,0.000537,0.006635,0.003403,0.474053,0.004424,0.000827,0.046075
img_03739.jpg,0.001088,0.000061,0.003546,0.000070,0.000093,0.014849,0.000395,0.979898
img_03456.jpg,0.001198,0.000081,0.000053,0.000045,0.996354,0.001386,0.000112,0.000772
img_02372.jpg,0.071089,0.000898,0.009834,0.002153,0.813056,0.033553,0.003928,0.065490
img_02119.jpg,0.558469,0.004191,0.406237,0.000769,0.001232,0.026676,0.000606,0.001821
img_03670.jpg,0.992771,0.000117,0.000043,0.000431,0.005969,0.000091,0.000357,0.000221
img_04410.jpg,0.846748,0.002186,0.004863,0.002878,0.030644,0.026635,0.008743,0.077302
img_06921.jpg,0.925302,0.000203,0.000832,0.000025,0.069688,0.001805,0.000140,0.002005
img_02291.jpg,0.936589,0.025858,0.003608,0.000098,0.001635,0.001266,0.000491,0.030454
img_00483.jpg,0.950454,0.004270,0.000061,0.000489,0.019036,0.000428,0.000843,0.024419
img_05463.jpg,0.910076,0.007566,0.000183,0.000068,0.001338,0.012636,0.000698,0.067436
img_02876.jpg,0.252934,0.006044,0.064624,0.001016,0.008363,0.010952,0.001320,0.654747
img_00103.jpg,0.602064,0.007168,0.040259,0.226449,0.007003,0.037234,0.002383,0.077440
img_03548.jpg,0.503466,0.006522,0.000938,0.000446,0.002135,0.212361,0.004770,0.269361
img_07792.jpg,0.701665,0.004032,0.000200,0.000675,0.000840,0.014698,0.005178,0.272711
img_07348.jpg,0.314448,0.033479,0.001459,0.032164,0.545548,0.001569,0.010172,0.061159
img_00599.jpg,0.852506,0.001472,0.000200,0.000208,0.001067,0.008109,0.011250,0.125188
img_03992.jpg,0.048391,0.261921,0.000033,0.000104,0.687666,0.000345,0.001061,0.000478
img_00764.jpg,0.186650,0.071245,0.036523,0.022261,0.163415,0.021104,0.001024,0.497779
img_02651.jpg,0.718644,0.015088,0.000463,0.000720,0.202411,0.006707,0.001315,0.054652
img_01802.jpg,0.851356,0.003961,0.004717,0.001290,0.003786,0.003966,0.000701,0.130223
img_05908.jpg,0.018893,0.000364,0.000627,0.000163,0.970561,0.000777,0.000027,0.008587
img_06807.jpg,0.204578,0.000384,0.000291,0.002801,0.605919,0.002682,0.177242,0.006103
img_01773.jpg,0.190575,0.004238,0.001772,0.000313,0.002671,0.001729,0.051523,0.747180
img_03837.jpg,0.491526,0.146595,0.009578,0.003465,0.076363,0.005538,0.003215,0.263721
img_04624.jpg,0.010240,0.015837,0.000466,0.011500,0.001250,0.927598,0.001825,0.031284
img_02356.jpg,0.535176,0.000873,0.001769,0.000096,0.002405,0.000672,0.000489,0.458521
img_07528.jpg,0.997712,0.000339,0.000125,0.000262,0.000881,0.000050,0.000182,0.000447
img_07623.jpg,0.918667,0.039122,0.000381,0.000301,0.009961,0.003721,0.000297,0.027550
img_01171.jpg,0.011295,0.004076,0.000267,0.008913,0.826752,0.007923,0.002257,0.138517
img_01224.jpg,0.475755,0.005550,0.101612,0.000242,0.001189,0.022572,0.004699,0.388381
img_02871.jpg,0.192697,0.134544,0.001689,0.093530,0.004251,0.212571,0.097252,0.263465
img_07192.jpg,0.548881,0.017012,0.000315,0.000367,0.304405,0.000024,0.000745,0.128251
img_05525.jpg,0.899332,0.009068,0.005209,0.006730,0.009016,0.009909,0.001474,0.059261
img_00311.jpg,0.998131,0.000867,0.000052,0.000402,0.000133,0.000109,0.000059,0.000247
img_00005.jpg,0.016265,0.000157,0.000273,0.000245,0.981879,0.000695,0.000119,0.000366
img_02282.jpg,0.001162,0.000030,0.001755,0.000034,0.000187,0.001157,0.000279,0.995396
img_04261.jpg,0.233072,0.763959,0.000032,0.000174,0.000100,0.000112,0.000010,0.002541
img_04482.jpg,0.694226,0.031603,0.017030,0.196210,0.034888,0.009021,0.013489,0.003532
img_00375.jpg,0.542670,0.006576,0.029668,0.000097,0.014546,0.030504,0.002478,0.373462
img_06426.jpg,0.523583,0.000255,0.004499,0.000009,0.001873,0.007376,0.000314,0.462092
img_04321.jpg,0.361874,0.006449,0.001090,0.000710,0.006926,0.001050,0.005258,0.616643
img_04752.jpg,0.665432,0.004277,0.005383,0.050024,0.059943,0.205581,0.004514,0.004845
img_07065.jpg,0.005304,0.357362,0.000258,0.345684,0.003774,0.284573,0.000054,0.002990
img_04546.jpg,0.020913,0.000409,0.004482,0.000223,0.001842,0.018595,0.000271,0.953265
img_04696.jpg,0.841474,0.005769,0.002452,0.000593,0.013338,0.018658,0.114071,0.003645
img_03333.jpg,0.539178,0.001451,0.000919,0.003686,0.001138,0.442100,0.000873,0.010653
img_07314.jpg,0.006408,0.000065,0.002918,0.000172,0.000397,0.025894,0.001154,0.962992
img_02076.jpg,0.257425,0.071563,0.002606,0.002725,0.643869,0.005766,0.004331,0.011716
img_02956.jpg,0.864476,0.021160,0.009496,0.000647,0.002909,0.003608,0.009427,0.088278
img_00564.jpg,0.005617,0.000146,0.000395,0.000202,0.941408,0.036462,0.000237,0.015533
img_07872.jpg,0.394067,0.012343,0.006035,0.000834,0.567864,0.001979,0.000622,0.016255
img_01932.jpg,0.933778,0.001329,0.001354,0.000507,0.003617,0.025664,0.000814,0.032937
img_00128.jpg,0.006412,0.006802,0.023754,0.000738,0.007025,0.004668,0.002726,0.947875
img_04408.jpg,0.579395,0.352733,0.001773,0.024946,0.001704,0.003282,0.000190,0.035977
img_03924.jpg,0.002810,0.000742,0.000165,0.000963,0.974804,0.001059,0.015236,0.004221
img_03324.jpg,0.089800,0.004740,0.085857,0.000198,0.002184,0.026707,0.001431,0.789081
img_00966.jpg,0.835875,0.033146,0.000797,0.000425,0.012274,0.000786,0.007584,0.109113
img_04835.jpg,0.063513,0.076477,0.002360,0.153797,0.001652,0.515687,0.009760,0.176754
img_06318.jpg,0.169859,0.010113,0.000399,0.001509,0.000114,0.006438,0.015227,0.796341
img_01552.jpg,0.973532,0.000146,0.001009,0.000316,0.010395,0.000375,0.002784,0.011443
img_05064.jpg,0.453777,0.072930,0.013407,0.023917,0.035339,0.065576,0.003855,0.331198
img_00538.jpg,0.607242,0.001471,0.005405,0.022548,0.127779,0.012293,0.007746,0.215517
img_00777.jpg,0.869601,0.041370,0.004788,0.003968,0.023261,0.039825,0.004899,0.012287
img_07120.jpg,0.214320,0.000820,0.001622,0.000484,0.001266,0.000200,0.000513,0.780775
img_04888.jpg,0.950959,0.003267,0.000468,0.000060,0.000757,0.000327,0.000014,0.044147
img_01249.jpg,0.245421,0.015965,0.237985,0.005328,0.297313,0.134987,0.016412,0.046588
img_03588.jpg,0.347116,0.071587,0.002066,0.005148,0.001447,0.253423,0.075736,0.243478
img_07428.jpg,0.960900,0.005317,0.001954,0.009395,0.008107,0.001490,0.002612,0.010225
img_07110.jpg,0.541061,0.005577,0.103163,0.000508,0.001785,0.325462,0.008316,0.014129
img_01593.jpg,0.469405,0.013561,0.001353,0.004490,0.004699,0.012241,0.009056,0.485195
img_07094.jpg,0.983746,0.002308,0.000378,0.001293,0.003651,0.000378,0.001037,0.007209
img_02398.jpg,0.283011,0.004442,0.031340,0.060843,0.019060,0.573051,0.007923,0.020329
img_05735.jpg,0.659289,0.046133,0.002467,0.003655,0.005131,0.006879,0.002751,0.273695
img_00380.jpg,0.910719,0.001508,0.001478,0.001018,0.044007,0.033072,0.001019,0.007179
img_02837.jpg,0.360448,0.019558,0.000674,0.000579,0.005442,0.001028,0.000430,0.611841
img_02309.jpg,0.996703,0.000091,0.000406,0.000128,0.000078,0.000978,0.000395,0.001220
img_03444.jpg,0.827699,0.031117,0.026603,0.001297,0.001853,0.106101,0.002350,0.002980
img_07859.jpg,0.000359,0.000012,0.000002,0.000044,0.988160,0.000157,0.000045,0.011220
img_04115.jpg,0.679416,0.035162,0.001358,0.000423,0.014509,0.006723,0.011811,0.250598
img_02573.jpg,0.108445,0.823103,0.003222,0.012688,0.014375,0.003448,0.002081,0.032638
img_04647.jpg,0.762527,0.002369,0.002009,0.000333,0.006621,0.001194,0.205454,0.019492
img_01966.jpg,0.932374,0.001860,0.000560,0.000085,0.032732,0.000789,0.002165,0.029435
img_05349.jpg,0.156681,0.413235,0.016309,0.014633,0.074299,0.028590,0.004533,0.291718
img_01543.jpg,0.686831,0.128304,0.001281,0.004190,0.124276,0.004835,0.000944,0.049340
img_02347.jpg,0.622787,0.009336,0.004316,0.003284,0.351816,0.003499,0.000744,0.004217
img_02507.jpg,0.360382,0.001373,0.039122,0.003622,0.228717,0.349978,0.000266,0.016539
img_01847.jpg,0.342344,0.091952,0.011719,0.004882,0.016238,0.144471,0.241674,0.146721
img_06508.jpg,0.022902,0.003564,0.000736,0.002572,0.956515,0.000286,0.003107,0.010317
img_00487.jpg,0.001806,0.000025,0.000065,0.000104,0.992639,0.000270,0.000054,0.005038
img_03169.jpg,0.003007,0.021978,0.147003,0.005379,0.004661,0.011123,0.008257,0.798590
img_04726.jpg,0.000430,0.000010,0.000002,0.000014,0.999472,0.000039,0.000001,0.000031
img_06401.jpg,0.632930,0.007793,0.003505,0.000711,0.272368,0.065149,0.009781,0.007763
img_00648.jpg,0.999386,0.000039,0.000010,0.000005,0.000193,0.000165,0.000162,0.000040
img_02666.jpg,0.931147,0.000198,0.000057,0.000627,0.031519,0.006433,0.000077,0.029942
img_07893.jpg,0.531063,0.043658,0.000610,0.001629,0.000886,0.006585,0.005008,0.410561
img_07594.jpg,0.645085,0.014324,0.001661,0.000447,0.007419,0.008407,0.026073,0.296584
img_04015.jpg,0.760802,0.025508,0.001504,0.001365,0.135468,0.057156,0.001890,0.016306
img_06349.jpg,0.000394,0.000056,0.000003,0.000045,0.322366,0.000940,0.000238,0.675958
img_00999.jpg,0.913166,0.004833,0.000778,0.000056,0.000928,0.017912,0.002798,0.059528
img_03853.jpg,0.978457,0.002981,0.000383,0.000716,0.009825,0.003294,0.001025,0.003321
img_07318.jpg,0.002882,0.000111,0.002681,0.000209,0.005171,0.160476,0.001347,0.827124
img_03928.jpg,0.649324,0.021023,0.002786,0.002012,0.016812,0.007026,0.050618,0.250399
img_00417.jpg,0.523062,0.001141,0.000205,0.001314,0.009191,0.004315,0.009929,0.450842
img_04382.jpg,0.002458,0.003158,0.794313,0.002735,0.000210,0.001085,0.000352,0.195691
img_02188.jpg,0.700399,0.006947,0.000865,0.000257,0.003280,0.015379,0.212944,0.059928
img_05251.jpg,0.289383,0.125485,0.000864,0.032131,0.007463,0.310322,0.101051,0.133301
img_03229.jpg,0.504207,0.242122,0.003136,0.007856,0.000418,0.111524,0.069197,0.061540
img_00717.jpg,0.840689,0.017095,0.013568,0.006814,0.010802,0.046959,0.005864,0.058208
img_06186.jpg,0.559647,0.009275,0.004345,0.011233,0.158594,0.006943,0.005132,0.244832
img_05792.jpg,0.804166,0.000886,0.000160,0.000053,0.002048,0.002939,0.002562,0.187185
img_04130.jpg,0.972735,0.000378,0.000015,0.000002,0.026519,0.000007,0.000027,0.000318
